[gd_scene load_steps=5 format=3 uid="uid://b6wwwuq7psbpt"]

[ext_resource type="Texture2D" uid="uid://cxwv8vbdc86cq" path="res://Assets/png/enemies/badguy1.png" id="1_4scqd"]
[ext_resource type="Script" path="res://badguy.gd" id="1_10ynr"]

[sub_resource type="SpriteFrames" id="SpriteFrames_mpq4q"]
animations = [{
"frames": [{
"duration": 1.0,
"texture": ExtResource("1_4scqd")
}],
"loop": true,
"name": &"default",
"speed": 5.0
}]

[sub_resource type="RectangleShape2D" id="RectangleShape2D_1efwd"]
size = Vector2(14, 14)

[node name="Badguy" type="CharacterBody2D" groups=["enemy"]]
script = ExtResource("1_10ynr")

[node name="AnimatedSprite2D" type="AnimatedSprite2D" parent="."]
sprite_frames = SubResource("SpriteFrames_mpq4q")

[node name="CollisionShape2D" type="CollisionShape2D" parent="."]
shape = SubResource("RectangleShape2D_1efwd")

[node name="VisibleOnScreenEnabler2D" type="VisibleOnScreenEnabler2D" parent="."]
