[gd_resource type="AudioBusLayout" format=3 uid="uid://wypnbirs1faw"]

[resource]
bus/1/name = &"Scenary"
bus/1/solo = false
bus/1/mute = false
bus/1/bypass_fx = false
bus/1/volume_db = 0.0
bus/1/send = &"Master"
