[gd_scene load_steps=4 format=3 uid="uid://c0yghgfkwsvgf"]

[ext_resource type="Texture2D" uid="uid://vnqlvo348my7" path="res://Assets/png/scenary/door.png" id="1_8n638"]
[ext_resource type="Script" path="res://door.gd" id="1_r4yjm"]

[sub_resource type="RectangleShape2D" id="RectangleShape2D_iifar"]

[node name="Door" type="StaticBody2D"]
script = ExtResource("1_r4yjm")

[node name="Sprite2D" type="Sprite2D" parent="."]
texture = ExtResource("1_8n638")

[node name="CollisionShape2D" type="CollisionShape2D" parent="."]
shape = SubResource("RectangleShape2D_iifar")
