[gd_scene load_steps=3 format=3 uid="uid://c4k7f8j6spvlf"]

[ext_resource type="Script" path="res://Init.gd" id="1_4heht"]
[ext_resource type="FontFile" uid="uid://djnsgwcmiqiet" path="res://Assets/fonts/Retro Gaming.ttf" id="2_wyts6"]

[node name="Main" type="Node2D"]
script = ExtResource("1_4heht")

[node name="CanvasLayer" type="CanvasLayer" parent="."]

[node name="TitleLabel" type="Label" parent="."]
offset_left = 110.0
offset_top = 13.0
offset_right = 310.0
offset_bottom = 157.0
theme_override_colors/font_color = Color(0, 0, 0, 1)
theme_override_colors/font_outline_color = Color(1, 1, 1, 1)
theme_override_constants/outline_size = 2
theme_override_fonts/font = ExtResource("2_wyts6")
text = "Space Gauntlet

AWSD = movimiento
Espacio = disparo
May. Izq = turbo
ESC = instrucciones"
horizontal_alignment = 1

[node name="GamButton" type="Button" parent="."]
offset_left = 177.0
offset_top = 167.0
offset_right = 240.0
offset_bottom = 198.0
theme_override_fonts/font = ExtResource("2_wyts6")
text = "Start"

[connection signal="pressed" from="GamButton" to="." method="_on_gam_button_pressed"]
