[gd_scene load_steps=11 format=3 uid="uid://tf827y6nwy3d"]

[ext_resource type="Script" path="res://Map3.gd" id="1_pqgvy"]
[ext_resource type="TileSet" uid="uid://cufdxtjgv0qks" path="res://Assets/tileset/tileset_test_1/tileset_tileset_test_1.tres" id="2_kbqss"]
[ext_resource type="Script" path="res://TileMap.gd" id="3_wgbw4"]
[ext_resource type="PackedScene" uid="uid://sdt4w41dl7h7" path="res://enemyhouse.tscn" id="4_rkski"]
[ext_resource type="Texture2D" uid="uid://clvckmm2ikwt7" path="res://Assets/png/scenary/exit.png" id="5_rt3lm"]
[ext_resource type="PackedScene" uid="uid://cwdexkrgd31re" path="res://health.tscn" id="6_0cw2m"]
[ext_resource type="PackedScene" uid="uid://ct5ol0fkk5jv0" path="res://key.tscn" id="7_ycsg7"]
[ext_resource type="PackedScene" uid="uid://c0yghgfkwsvgf" path="res://door.tscn" id="8_cr0pk"]
[ext_resource type="AudioStream" uid="uid://bn3e4363rwlpe" path="res://Assets/sounds/get_exit.mp3" id="9_tm6xj"]

[sub_resource type="RectangleShape2D" id="RectangleShape2D_umfhh"]

[node name="Map3" type="Node2D"]
script = ExtResource("1_pqgvy")

[node name="TileMap" type="TileMap" parent="."]
z_index = -2
tile_set = ExtResource("2_kbqss")
format = 2
layer_0/tile_data = PackedInt32Array(-196615, 262144, 0, -196614, 65536, 3, -196613, 65536, 3, -196612, 65536, 3, -196611, 524288, 3, -196610, 524288, 0, -196609, 65536, 3, -262144, 65536, 3, -131079, 458752, 4, -65543, 196608, 1, -7, 458752, 4, 65529, 196608, 1, 131065, 196608, 1, 196601, 196608, 1, 262137, 196608, 1, 327673, 458752, 4, 393209, 196608, 1, 458745, 196608, 1, 524281, 196608, 1, 589817, 196608, 1, 655353, 196608, 1, 786425, 196608, 1, 851961, 196608, 1, 917497, 196608, 1, 983033, 196608, 1, 1048569, 196608, 1, 1114105, 262144, 4, 1179641, 196608, 1, 1245177, 196608, 1, 1310713, 196608, 1, 1376249, 196608, 1, 1441785, 196608, 1, 1507321, 196608, 1, -262123, 65536, 3, -262143, 65536, 3, -262142, 65536, 3, -262141, 65536, 3, -262140, 65536, 3, -262139, 524288, 0, -262138, 65536, 3, -262137, 65536, 3, -262136, 65536, 3, -262135, 65536, 3, -262134, 65536, 3, -262133, 65536, 3, -262132, 65536, 3, -262131, 65536, 3, -262130, 65536, 3, -262129, 524288, 3, -262128, 65536, 3, -262127, 65536, 3, -262126, 65536, 3, -262125, 65536, 3, -262124, 65536, 3, 720889, 196608, 1, -262122, 524288, 0, -262121, 65536, 3, -262120, 65536, 3, -262119, 65536, 3, -262117, 65536, 3, -262118, 65536, 3, -262116, 65536, 3, -262115, 65536, 3, -262114, 524288, 0, -262113, 65536, 3, -262112, 65536, 3, -262111, 65536, 3, -262110, 65536, 3, -262109, 65536, 3, -262108, 65536, 3, -131074, 196608, 1, -65538, 196608, 1, -2, 196608, 1, 65534, 196608, 1, 131070, 196608, 1, 196606, 196608, 1, 262142, 196608, 2, 196611, 196608, 2, 131075, 196608, 1, 65539, 196608, 1, 3, 262144, 0, 4, 65536, 3, 5, 458752, 3, -65531, 196608, 1, -131067, 196608, 1, -196603, 196608, 1, 10, 196608, 0, 65546, 196608, 1, 131082, 196608, 1, 196618, 524288, 3, 196615, 262144, 0, 196616, 65536, 3, 196617, 65536, 3, 196619, 65536, 3, 196620, 65536, 3, 196621, 65536, 3, 262151, 196608, 1, 327687, 196608, 1, 393223, 196608, 1, 458759, 196608, 1, 524295, 196608, 2, 786430, 196608, 2, 720894, 196608, 1, 655358, 196608, 1, 589822, 196608, 1, 524286, 196608, 1, 458750, 262144, 0, 458751, 65536, 3, 393216, 65536, 3, 393217, 65536, 3, 393218, 65536, 3, 393219, 458752, 0, 458755, 196608, 1, 524291, 196608, 1, 589827, 196608, 1, 655363, 196608, 1, 720899, 196608, 1, 786435, 262144, 4, 851971, 196608, 1, 917507, 196608, 1, 983043, 196608, 1, 1048579, 458752, 3, 1048578, 65536, 3, 1048577, 65536, 3, 1048576, 65536, 3, 1114111, 65536, 3, 1114110, 65536, 3, 1114109, 65536, 3, 1114108, 65536, 3, 1114107, 65536, 3, 1114106, 65536, 3, 786436, 65536, 3, 786437, 65536, 3, 786438, 65536, 3, 786439, 65536, 3, 786440, 65536, 3, 786441, 65536, 3, 786442, 524288, 4, 786443, 65536, 3, 393226, 196608, 0, 458762, 196608, 1, 524298, 196608, 1, 589834, 196608, 1, 655370, 196608, 1, 720906, 196608, 1, 786444, 65536, 3, 786445, 65536, 3, 786446, 131072, 3, 851978, 196608, 1, 917514, 196608, 1, 983050, 196608, 1, 1048586, 196608, 1, 1114122, 196608, 1, 1179658, 196608, 1, 1245194, 458752, 3, 1245193, 65536, 3, 1245192, 65536, 3, 1245191, 65536, 3, 1245190, 65536, 3, 1245189, 65536, 3, 1245188, 65536, 3, 1245187, 65536, 3, 1245186, 262144, 0, 13, 0, 3, 14, 65536, 3, 15, 65536, 3, 16, 65536, 3, 17, 65536, 3, 18, 458752, 0, 65554, 196608, 1, 131090, 196608, 1, 196626, 196608, 1, 262162, 196608, 1, 327698, 196608, 1, 393234, 262144, 3, 393235, 65536, 3, 393236, 65536, 3, 393237, 65536, 3, 393238, 65536, 3, 393239, 65536, 3, 393240, 65536, 3, 65558, 196608, 2, 22, 196608, 1, -65514, 196608, 1, -131050, 196608, 1, -196586, 196608, 1, 393241, 65536, 3, 393242, 524288, 3, 327706, 196608, 1, 262170, 196608, 1, 196634, 196608, 1, 131098, 262144, 4, 131099, 65536, 3, 131100, 65536, 3, 131101, 65536, 3, 131102, 65536, 3, 131103, 65536, 3, 131104, 65536, 3, 65562, 196608, 1, 26, 196608, 1, -65510, 196608, 0, 131105, 65536, 3, 131106, 65536, 3, 131107, 65536, 3, 131109, 524288, 0, 131108, 65536, 3, 131110, 65536, 3, 131111, 65536, 3, 131112, 65536, 3, 131113, 65536, 3, 131114, 65536, 3, 131115, 65536, 3, 131116, 524288, 0, 131117, 65536, 3, 131118, 65536, 3, 131119, 65536, 3, -262107, 65536, 3, -262106, 65536, 3, -262105, 65536, 3, -262104, 65536, 3, -262103, 65536, 3, -262102, 65536, 3, -262101, 65536, 3, -262100, 65536, 3, -262099, 65536, 3, -262098, 65536, 3, -262097, 65536, 3, -262096, 458752, 0, -196560, 196608, 1, -131024, 196608, 1, -65488, 196608, 1, 48, 196608, 1, 65584, 196608, 1, 131120, 458752, 4, -196578, 196608, 1, -131042, 196608, 1, -65506, 262144, 3, -65505, 65536, 3, -65504, 65536, 3, -65503, 65536, 3, -65502, 65536, 3, -65501, 65536, 3, -65500, 65536, 3, -65499, 65536, 3, -65498, 65536, 3, -65497, 65536, 3, -65496, 65536, 3, -65495, 65536, 3, -65494, 65536, 3, -65493, 65536, 3, -65492, 65536, 3, -65491, 131072, 3, 393243, 65536, 3, 393244, 65536, 3, 393245, 524288, 0, 393246, 65536, 3, 393247, 65536, 3, 393248, 65536, 3, 393249, 131072, 3, 196622, 458752, 0, 262158, 196608, 1, 327694, 196608, 1, 393230, 196608, 1, 458766, 196608, 1, 524302, 196608, 1, 589838, 262144, 3, 589839, 65536, 3, 589840, 65536, 3, 589841, 65536, 3, 589842, 65536, 3, 589843, 524288, 0, 589844, 65536, 3, 589845, 65536, 3, 589846, 65536, 3, 589847, 524288, 0, 589848, 65536, 3, 589849, 131072, 3, 655379, 196608, 1, 720915, 196608, 1, 786451, 196608, 2, 393253, 196608, 2, 327717, 196608, 1, 262181, 196608, 1, 196645, 196608, 1, 393262, 65536, 3, 393263, 65536, 3, 393264, 458752, 4, 327728, 196608, 1, 262192, 196608, 1, 196656, 196608, 1, 196652, 196608, 2, 393260, 0, 3, 393261, 65536, 3, 393256, 0, 3, 393257, 458752, 0, 458793, 196608, 1, 524329, 196608, 1, 589865, 196608, 1, 655401, 196608, 1, 720937, 196608, 1, 786473, 196608, 1, 852009, 262144, 3, 852010, 65536, 3, 852011, 65536, 3, 852012, 458752, 0, 917548, 196608, 1, 983084, 196608, 1, 1048620, 196608, 1, 1114156, 196608, 1, 1179692, 196608, 1, 1245228, 196608, 1, 1310764, 262144, 3, 1310765, 65536, 3, 1310766, 65536, 3, 1310767, 65536, 3, 1310768, 458752, 4, 458800, 196608, 1, 524336, 196608, 1, 589872, 196608, 1, 655408, 196608, 1, 720944, 196608, 1, 786480, 196608, 1, 852016, 196608, 1, 917552, 196608, 1, 983088, 262144, 4, 1048624, 196608, 1, 1114160, 196608, 1, 1179696, 262144, 4, 1245232, 196608, 1, 786470, 196608, 1, 852006, 196608, 1, 917542, 196608, 1, 983078, 196608, 1, 1048614, 262144, 4, 1048615, 65536, 3, 1048616, 65536, 3, 1048617, 131072, 3, 1114150, 196608, 1, 1179686, 196608, 1, 1245222, 196608, 1, 1310758, 196608, 1, 1376294, 196608, 1, 1441830, 196608, 1, 1507366, 458752, 3, 1507365, 65536, 3, 1507364, 65536, 3, 1507363, 65536, 3, 1507362, 65536, 3, 1507361, 65536, 3, 1507360, 65536, 3, 1507359, 65536, 3, 1507358, 262144, 0, 1310722, 196608, 1, 1376258, 196608, 1, 1441794, 196608, 1, 1507330, 196608, 1, 1572866, 262144, 3, 1572867, 65536, 3, 1572868, 65536, 3, 1572869, 131072, 3, 655383, 196608, 1, 720919, 196608, 1, 786455, 196608, 1, 851991, 196608, 1, 917527, 196608, 1, 983063, 196608, 1, 1572857, 196608, 1, 1638393, 458752, 4, 1703929, 196608, 1, 1769465, 196608, 1, 1835001, 196608, 1, 1900537, 196608, 1, 1966073, 196608, 1, 2031609, 262144, 4, 2097145, 196608, 1, 2162681, 196608, 1, 1966077, 196608, 1, 1900541, 196608, 1, 1835005, 196608, 1, 1769469, 196608, 1, 1703933, 196608, 1, 1638397, 196608, 1, 1572861, 196608, 1, 1507325, 196608, 1, 1310717, 196608, 0, 1376253, 196608, 1, 1441789, 196608, 1, 1441799, 0, 3, 1441800, 65536, 3, 1441801, 65536, 3, 1441802, 65536, 3, 1441803, 65536, 3, 1441804, 65536, 3, 1441805, 524288, 0, 1441806, 65536, 3, 1441807, 65536, 3, 1441808, 65536, 3, 1441809, 524288, 3, 1507341, 196608, 1, 1572877, 196608, 1, 1638413, 196608, 1, 1703949, 196608, 1, 1769485, 196608, 1, 1835021, 196608, 1, 1900557, 196608, 2, 1441810, 65536, 3, 1441811, 65536, 3, 1441812, 65536, 3, 1441813, 65536, 3, 1441814, 65536, 3, 1441815, 458752, 0, 1507351, 196608, 1, 1572887, 196608, 1, 1638423, 262144, 4, 1703959, 196608, 1, 1769495, 196608, 1, 1835031, 262144, 4, 1900567, 196608, 1, 1376297, 196608, 0, 1441833, 196608, 1, 1507369, 196608, 1, 1572905, 262144, 4, 1638441, 196608, 1, 1703977, 458752, 4, 1769513, 196608, 1, 1835049, 196608, 1, 1900585, 196608, 1, 1966121, 524288, 3, 1376304, 196608, 1, 1441840, 196608, 1, 1507376, 196608, 1, 1572912, 196608, 1, 1638448, 196608, 1, 1703984, 196608, 1, 1769520, 458752, 4, 1835056, 196608, 1, 1900592, 196608, 1, 1966128, 196608, 1, 2031664, 196608, 1, 2097200, 196608, 1, 2162736, 458752, 4, 2228272, 196608, 1, 1572906, 65536, 3, 1572907, 65536, 3, 1572908, 65536, 3, 1572909, 131072, 3, 1769516, 0, 3, 1769517, 65536, 3, 1769518, 65536, 3, 1769519, 65536, 3, 1966122, 65536, 3, 1966123, 65536, 3, 1966124, 65536, 3, 1966125, 131072, 3, 2162732, 65536, 3, 2162733, 65536, 3, 2162734, 65536, 3, 2162735, 65536, 3, 1966120, 65536, 3, 1966119, 65536, 3, 1966118, 65536, 3, 1966117, 524288, 0, 2162731, 65536, 3, 2162730, 65536, 3, 2162729, 262144, 0, 2228265, 196608, 1, 2293801, 196608, 1, 2359337, 262144, 4, 2424873, 196608, 1, 2490409, 196608, 1, 2359338, 65536, 3, 2359339, 65536, 3, 2359340, 131072, 3, 2555948, 196608, 0, 2621484, 196608, 1, 2687020, 196608, 1, 2752556, 458752, 3, 2752555, 65536, 3, 2752554, 65536, 3, 2752553, 65536, 3, 2752552, 65536, 3, 2752551, 65536, 3, 2752550, 65536, 3, 2752549, 65536, 3, 2752548, 65536, 3, 2752547, 65536, 3, 2752546, 65536, 3, 2752545, 65536, 3, 2752544, 65536, 3, 2752543, 65536, 3, 2752542, 262144, 3, 3014685, 65536, 3, 3014686, 65536, 3, 3014687, 65536, 3, 3014688, 65536, 3, 3014689, 65536, 3, 3014690, 65536, 3, 3014691, 65536, 3, 3014692, 65536, 3, 3014693, 65536, 3, 3014694, 524288, 0, 3014695, 65536, 3, 3014696, 65536, 3, 3014697, 65536, 3, 3014698, 65536, 3, 3014699, 65536, 3, 3014700, 65536, 3, 3014701, 65536, 3, 3014702, 524288, 0, 3014703, 65536, 3, 3014704, 458752, 3, 2293808, 196608, 1, 2359344, 196608, 1, 2424880, 196608, 1, 2490416, 196608, 1, 2555952, 196608, 1, 2621488, 196608, 1, 2687024, 196608, 1, 2752560, 196608, 1, 2818096, 196608, 1, 2883632, 196608, 1, 2949168, 196608, 1, 2555945, 458752, 3, 2555944, 65536, 3, 2555943, 65536, 3, 2555942, 65536, 3, 2555941, 65536, 3, 2555940, 65536, 3, 2555939, 65536, 3, 2555938, 262144, 3, 2490402, 196608, 1, 2424866, 196608, 1, 2359330, 196608, 1, 2359333, 196608, 2, 2293797, 196608, 1, 2228261, 196608, 1, 2162725, 196608, 1, 2097189, 196608, 1, 2031653, 196608, 1, 1966116, 65536, 3, 1966115, 65536, 3, 1966114, 65536, 3, 1966113, 65536, 3, 1966112, 65536, 3, 1966111, 65536, 3, 1966110, 262144, 4, 1572894, 196608, 1, 1638430, 458752, 4, 1703966, 196608, 1, 1769502, 196608, 1, 1835038, 196608, 1, 1900574, 196608, 1, 1703969, 0, 3, 1703970, 65536, 3, 1703971, 65536, 3, 1703972, 65536, 3, 1703973, 65536, 3, 1703974, 65536, 3, 1703975, 65536, 3, 1703976, 65536, 3, 1638424, 65536, 3, 1638425, 65536, 3, 1638426, 65536, 3, 1638427, 65536, 3, 1638428, 65536, 3, 1638429, 65536, 3, 1048599, 196608, 1, 1114135, 458752, 4, 1179671, 262144, 2, 1245207, 0, 2, 589858, 65536, 3, 589859, 65536, 3, 589860, 65536, 3, 589861, 65536, 3, 589862, 458752, 0, 655398, 196608, 1, 720934, 196608, 1, 786467, 196608, 0, 852003, 196608, 1, 917539, 196608, 1, 983075, 196608, 1, 1048611, 196608, 1, 1114147, 196608, 1, 1179683, 196608, 1, 1114141, 262144, 3, 1048605, 196608, 1, 983069, 196608, 1, 917533, 196608, 1, 851997, 458752, 4, 786461, 196608, 1, 720925, 196608, 1, 655389, 196608, 1, 589853, 196608, 1, 524317, 196608, 1, 458781, 196608, 1, 1114144, 458752, 3, 1048608, 196608, 1, 983072, 196608, 1, 917536, 196608, 1, 852000, 196608, 1, 786464, 196608, 1, 720928, 196608, 1, 655392, 196608, 1, 589856, 262144, 0, 589857, 65536, 3, 1245219, 196608, 1, 1310755, 458752, 3, 1114142, 65536, 3, 1114143, 65536, 3, 1310754, 65536, 3, 1310753, 65536, 3, 1310752, 65536, 3, 1310751, 65536, 3, 1310750, 65536, 3, 1310749, 65536, 3, 1310748, 65536, 3, 1310747, 65536, 3, 1310746, 262144, 3, 1245210, 458752, 1, 1179674, 131072, 0, 1179673, 65536, 0, 1245209, 65536, 2, 1245208, 65536, 2, 1179672, 65536, 0, 1638406, 0, 3, 1638407, 131072, 3, 1703944, 0, 3, 1703945, 131072, 3, 3014684, 65536, 3, 3014683, 65536, 3, 3014682, 65536, 3, 3014681, 524288, 0, 3014680, 65536, 3, 3014679, 524288, 3, 3014678, 65536, 3, 3014677, 65536, 3, 3014676, 65536, 3, 3014675, 65536, 3, 3014674, 65536, 3, 3014673, 524288, 0, 3014672, 65536, 3, 3014671, 65536, 3, 3014670, 65536, 3, 3014669, 65536, 3, 3014668, 65536, 3, 3014667, 65536, 3, 3014666, 65536, 3, 3014665, 524288, 0, 3014664, 65536, 3, 3014663, 65536, 3, 3014662, 524288, 3, 3014661, 65536, 3, 3014660, 65536, 3, 3014659, 65536, 3, 3014658, 65536, 3, 3014657, 65536, 3, 3014656, 65536, 3, 3080191, 524288, 0, 3080190, 65536, 3, 3080189, 65536, 3, 3080188, 524288, 0, 3080187, 65536, 3, 3080186, 65536, 3, 3080185, 262144, 3, 2293753, 196608, 1, 2359289, 196608, 1, 2424825, 196608, 1, 2490361, 196608, 1, 2555897, 196608, 1, 2621433, 196608, 1, 2686969, 458752, 4, 2752505, 196608, 1, 2818041, 196608, 1, 2883577, 262144, 4, 2949113, 458752, 4, 3014649, 196608, 1, 2883578, 65536, 3, 2883579, 65536, 3, 2883580, 65536, 3, 2883581, 65536, 3, 2883582, 65536, 3, 2883583, 131072, 3, 2818050, 196608, 2, 2752514, 196608, 1, 2686978, 196608, 1, 2621442, 458752, 4, 2555906, 196608, 1, 2490370, 196608, 1, 2424834, 196608, 0, 2621441, 65536, 3, 2621440, 65536, 3, 2686975, 65536, 3, 2686974, 65536, 3, 2686973, 262144, 3, 2621437, 196608, 1, 2555901, 196608, 1, 2490365, 196608, 1, 2228217, 196608, 1, 2031610, 65536, 3, 2031611, 65536, 3, 2031612, 65536, 3, 2031613, 458752, 3, 2424829, 196608, 1, 2359293, 196608, 1, 2293757, 196608, 1, 2228221, 262144, 0, 2228222, 65536, 3, 2228223, 65536, 3, 2162688, 65536, 3, 2162689, 65536, 3, 2162690, 65536, 3, 2162691, 65536, 3, 2162692, 65536, 3, 2162693, 65536, 3, 2162694, 458752, 4, 2228230, 196608, 1, 2293766, 196608, 1, 2359302, 196608, 1, 2424838, 196608, 1, 2490374, 196608, 1, 2555910, 196608, 1, 2621446, 196608, 1, 2686982, 196608, 1, 2752518, 196608, 1, 2818054, 196608, 1, 2883590, 196608, 1, 2949126, 196608, 1, 1966086, 262144, 0, 2031622, 196608, 1, 2097158, 196608, 1, 1966087, 65536, 3, 1966088, 65536, 3, 1900553, 196608, 0, 1966089, 458752, 4, 2031625, 196608, 1, 2097161, 196608, 1, 2162697, 262144, 3, 2162698, 65536, 3, 2162699, 65536, 3, 2162700, 65536, 3, 2162701, 65536, 3, 2162702, 65536, 3, 2162703, 65536, 3, 2162704, 65536, 3, 2162705, 65536, 3, 2162706, 458752, 3, 2097170, 196608, 1, 2031634, 196608, 1, 1966098, 196608, 1, 1900562, 196608, 1, 1835026, 196608, 1, 1769490, 196608, 1, 1703954, 196608, 0, 2424841, 0, 3, 2424842, 65536, 3, 2424843, 65536, 3, 2424844, 65536, 3, 2424845, 65536, 3, 2424846, 524288, 0, 2424847, 65536, 3, 2424848, 65536, 3, 2424849, 65536, 3, 2424850, 131072, 3, 2490382, 196608, 1, 2555918, 196608, 1, 2621454, 262144, 3, 2621455, 65536, 3, 2621456, 65536, 3, 2621457, 65536, 3, 2621458, 65536, 3, 2621459, 65536, 3, 2621460, 65536, 3, 2621461, 65536, 3, 1966103, 196608, 1, 2031639, 196608, 1, 2097175, 196608, 1, 2162711, 196608, 1, 2228247, 196608, 1, 2293783, 196608, 1, 2359319, 196608, 1, 2424855, 196608, 1, 2490391, 196608, 1, 2555927, 196608, 1, 2621463, 458752, 3, 2621462, 65536, 3, 2621449, 196608, 0, 2686985, 196608, 1, 2752521, 196608, 1, 2818057, 262144, 3, 2818058, 65536, 3, 2818059, 65536, 3, 2818060, 65536, 3, 2818061, 65536, 3, 2818062, 65536, 3, 2818063, 65536, 3, 2818064, 65536, 3, 2818065, 65536, 3, 2818066, 65536, 3, 2818067, 65536, 3, 2818068, 65536, 3, 2818069, 65536, 3, 2818070, 65536, 3, 2818071, 458752, 0, 2883607, 196608, 1, 2949143, 196608, 1, 2031646, 196608, 1, 2097182, 458752, 3, 2097181, 65536, 3, 2097180, 65536, 3, 2097179, 65536, 3, 2162714, 196608, 1, 2097178, 262144, 0, 2228250, 196608, 1, 2293786, 262144, 3, 2293787, 65536, 3, 2293788, 65536, 3, 2293789, 65536, 3, 2293790, 458752, 0, 2359326, 196608, 1, 2424862, 196608, 1, 2490398, 196608, 1, 2555934, 196608, 1, 2621470, 196608, 1, 2687006, 196608, 1, 1835032, 65536, 3, 1835033, 65536, 3, 1835034, 65536, 3, 1835035, 131072, 3, 2162722, 196608, 0, 2228258, 196608, 1, 2293794, 196608, 1, 1376273, 196608, 1, 1310737, 196608, 1, 1245201, 196608, 1, 1179665, 196608, 1, 1114129, 524288, 0, 1114134, 65536, 3, 1114133, 65536, 3, 1114132, 65536, 3, 851994, 262144, 4, 851995, 65536, 3, 851996, 65536, 3, 786458, 196608, 0, 917530, 196608, 2, 1114131, 65536, 3, 1114130, 65536, 3, 1114128, 65536, 3, 1114127, 65536, 3, 1114126, 262144, 0, 1179662, 196608, 1, 1245198, 196608, 2, 851962, 5, 0, 917498, 5, 0, 983034, 5, 0, 1048570, 5, 0, 851963, 5, 0, 917499, 5, 0, 983035, 5, 0, 1048571, 5, 0, 851964, 5, 0, 917500, 5, 0, 983036, 5, 0, 1048572, 5, 0, 851965, 5, 0, 917501, 5, 0, 983037, 5, 0, 1048573, 5, 0, 851966, 5, 0, 917502, 5, 0, 983038, 5, 0, 1048574, 5, 0, 851967, 5, 0, 917503, 5, 0, 983039, 5, 0, 1048575, 5, 0, 786432, 5, 0, 851968, 5, 0, 917504, 5, 0, 983040, 5, 0, 786433, 5, 0, 851969, 5, 0, 917505, 5, 0, 983041, 5, 0, 786434, 5, 0, 851970, 5, 0, 917506, 5, 0, 983042, 5, 0, -131078, 5, 0, -65542, 5, 0, -6, 5, 0, 65530, 5, 0, 131066, 5, 0, 196602, 5, 0, 262138, 5, 0, 327674, 5, 0, 393210, 5, 0, 458746, 5, 0, 524282, 5, 0, 589818, 5, 0, 655354, 5, 0, 720890, 5, 0, 786426, 5, 0, -131077, 5, 0, -65541, 5, 0, -5, 5, 0, 65531, 5, 0, 131067, 5, 0, 196603, 5, 0, 262139, 5, 0, 327675, 5, 0, 393211, 5, 0, 458747, 5, 0, 524283, 5, 0, 589819, 5, 0, 655355, 5, 0, 720891, 5, 0, 786427, 5, 0, -131076, 5, 0, -65540, 5, 0, -4, 5, 0, 65532, 5, 0, 131068, 5, 0, 196604, 5, 0, 262140, 5, 0, 327676, 5, 0, 393212, 5, 0, 458748, 5, 0, 524284, 5, 0, 589820, 5, 0, 655356, 5, 0, 720892, 5, 0, 786428, 5, 0, -131075, 5, 0, -65539, 5, 0, -3, 5, 0, 65533, 5, 0, 131069, 5, 0, 196605, 5, 0, 262141, 5, 0, 327677, 5, 0, 393213, 5, 0, 458749, 5, 0, 524285, 5, 0, 589821, 5, 0, 655357, 5, 0, 720893, 5, 0, 786429, 5, 0, 524287, 5, 0, 589823, 5, 0, 655359, 5, 0, 720895, 5, 0, 786431, 5, 0, 458752, 5, 0, 524288, 5, 0, 589824, 5, 0, 655360, 5, 0, 720896, 5, 0, 458753, 5, 0, 524289, 5, 0, 589825, 5, 0, 655361, 5, 0, 720897, 5, 0, 458754, 5, 0, 524290, 5, 0, 589826, 5, 0, 655362, 5, 0, 720898, 5, 0, 327678, 5, 0, 393214, 5, 0, 327679, 5, 0, 393215, 5, 0, 262144, 5, 0, 327680, 5, 0, 262145, 5, 0, 327681, 5, 0, 262146, 5, 0, 327682, 5, 0, 262147, 5, 0, 327683, 5, 0, 262148, 5, 0, 327684, 5, 0, 262149, 5, 0, 327685, 5, 0, 262150, 5, 0, 327686, 5, 0, -131073, 5, 0, -65537, 5, 0, -1, 5, 0, -196608, 5, 0, -131072, 5, 0, -65536, 5, 0, -196607, 5, 0, -131071, 5, 0, -65535, 5, 0, -196606, 5, 0, -131070, 5, 0, -65534, 5, 0, -196605, 5, 0, -131069, 5, 0, -65533, 5, 0, -196604, 5, 0, -131068, 5, 0, -65532, 5, 0, 65535, 5, 0, 131071, 5, 0, 196607, 5, 0, 262143, 5, 0, 0, 5, 0, 65536, 5, 0, 131072, 5, 0, 196608, 5, 0, 1, 5, 0, 65537, 5, 0, 131073, 5, 0, 196609, 5, 0, 2, 5, 0, 65538, 5, 0, 131074, 5, 0, 196610, 5, 0, 65540, 5, 0, 131076, 5, 0, 196612, 5, 0, 65541, 5, 0, 131077, 5, 0, 196613, 5, 0, 65542, 5, 0, 131078, 5, 0, 196614, 5, 0, 393220, 5, 0, 458756, 5, 0, 524292, 5, 0, 589828, 5, 0, 655364, 5, 0, 720900, 5, 0, 393221, 5, 0, 458757, 5, 0, 524293, 5, 0, 589829, 5, 0, 655365, 5, 0, 720901, 5, 0, 393222, 5, 0, 458758, 5, 0, 524294, 5, 0, 589830, 5, 0, 655366, 5, 0, 720902, 5, 0, -196602, 5, 0, -131066, 5, 0, -65530, 5, 0, -196601, 5, 0, -131065, 5, 0, -65529, 5, 0, -196600, 5, 0, -131064, 5, 0, -65528, 5, 0, -196599, 5, 0, -131063, 5, 0, -65527, 5, 0, -196598, 5, 0, -131062, 5, 0, -65526, 5, 0, -196597, 5, 0, -131061, 5, 0, -65525, 5, 0, -196596, 5, 0, -131060, 5, 0, -65524, 5, 0, -196595, 5, 0, -131059, 5, 0, -65523, 5, 0, -196594, 5, 0, -131058, 5, 0, -65522, 5, 0, -196593, 5, 0, -131057, 5, 0, -65521, 5, 0, -196592, 5, 0, -131056, 5, 0, -65520, 5, 0, -196591, 5, 0, -131055, 5, 0, -65519, 5, 0, -196590, 5, 0, -131054, 5, 0, -65518, 5, 0, -196589, 5, 0, -131053, 5, 0, -65517, 5, 0, -196588, 5, 0, -131052, 5, 0, -65516, 5, 0, -196587, 5, 0, -131051, 5, 0, -65515, 5, 0, 6, 5, 0, 7, 5, 0, 65543, 5, 0, 131079, 5, 0, 8, 5, 0, 65544, 5, 0, 131080, 5, 0, 9, 5, 0, 65545, 5, 0, 131081, 5, 0, -196585, 5, 0, -131049, 5, 0, -196584, 5, 0, -131048, 5, 0, -196583, 5, 0, -131047, 5, 0, -196582, 5, 0, -131046, 5, 0, -196581, 5, 0, -131045, 5, 0, -196580, 5, 0, -131044, 5, 0, -196579, 5, 0, -131043, 5, 0, -196577, 5, 0, -131041, 5, 0, -196576, 5, 0, -131040, 5, 0, -196575, 5, 0, -131039, 5, 0, -196574, 5, 0, -131038, 5, 0, -196573, 5, 0, -131037, 5, 0, -196572, 5, 0, -131036, 5, 0, -196571, 5, 0, -131035, 5, 0, -196570, 5, 0, -131034, 5, 0, -196569, 5, 0, -131033, 5, 0, -196568, 5, 0, -131032, 5, 0, -196567, 5, 0, -131031, 5, 0, -196566, 5, 0, -131030, 5, 0, -196565, 5, 0, -131029, 5, 0, -196564, 5, 0, -131028, 5, 0, -196563, 5, 0, -131027, 5, 0, -196562, 5, 0, -131026, 5, 0, -196561, 5, 0, -131025, 5, 0, -65490, 5, 0, -65489, 5, 0, 27, 5, 0, 65563, 5, 0, 28, 5, 0, 65564, 5, 0, 29, 5, 0, 65565, 5, 0, 30, 5, 0, 65566, 5, 0, 31, 5, 0, 65567, 5, 0, 32, 5, 0, 65568, 5, 0, 33, 5, 0, 65569, 5, 0, 34, 5, 0, 65570, 5, 0, 35, 5, 0, 65571, 5, 0, 36, 5, 0, 65572, 5, 0, 37, 5, 0, 65573, 5, 0, 38, 5, 0, 65574, 5, 0, 39, 5, 0, 65575, 5, 0, 40, 5, 0, 65576, 5, 0, 41, 5, 0, 65577, 5, 0, 42, 5, 0, 65578, 5, 0, 43, 5, 0, 65579, 5, 0, 44, 5, 0, 65580, 5, 0, 45, 5, 0, 65581, 5, 0, 46, 5, 0, 65582, 5, 0, 47, 5, 0, 65583, 5, 0, -65509, 5, 0, -65508, 5, 0, -65507, 5, 0, -65513, 5, 0, 23, 5, 0, 65559, 5, 0, 131095, 5, 0, 196631, 5, 0, 262167, 5, 0, 327703, 5, 0, -65512, 5, 0, 24, 5, 0, 65560, 5, 0, 131096, 5, 0, 196632, 5, 0, 262168, 5, 0, 327704, 5, 0, -65511, 5, 0, 25, 5, 0, 65561, 5, 0, 131097, 5, 0, 196633, 5, 0, 262169, 5, 0, 327705, 5, 0, 19, 5, 0, 65555, 5, 0, 131091, 5, 0, 196627, 5, 0, 262163, 5, 0, 20, 5, 0, 65556, 5, 0, 131092, 5, 0, 196628, 5, 0, 262164, 5, 0, 21, 5, 0, 65557, 5, 0, 131093, 5, 0, 196629, 5, 0, 262165, 5, 0, 131094, 5, 0, 196630, 5, 0, 262166, 5, 0, 327702, 5, 0, 327699, 5, 0, 327700, 5, 0, 327701, 5, 0, 65547, 5, 0, 131083, 5, 0, 65548, 5, 0, 131084, 5, 0, 65549, 5, 0, 131085, 5, 0, 65550, 5, 0, 131086, 5, 0, 65551, 5, 0, 131087, 5, 0, 65552, 5, 0, 131088, 5, 0, 11, 5, 0, 12, 5, 0, 196623, 5, 0, 262159, 5, 0, 327695, 5, 0, 393231, 5, 0, 458767, 5, 0, 524303, 5, 0, 196624, 5, 0, 262160, 5, 0, 327696, 5, 0, 393232, 5, 0, 458768, 5, 0, 524304, 5, 0, 65553, 5, 0, 131089, 5, 0, 196625, 5, 0, 262161, 5, 0, 327697, 5, 0, 393233, 5, 0, 458769, 5, 0, 524305, 5, 0, 458770, 5, 0, 524306, 5, 0, 458771, 5, 0, 524307, 5, 0, 458772, 5, 0, 524308, 5, 0, 458773, 5, 0, 524309, 5, 0, 458774, 5, 0, 524310, 5, 0, 458775, 5, 0, 524311, 5, 0, 458776, 5, 0, 524312, 5, 0, 458777, 5, 0, 524313, 5, 0, 458778, 5, 0, 524314, 5, 0, 458779, 5, 0, 524315, 5, 0, 458780, 5, 0, 524316, 5, 0, 196635, 5, 0, 262171, 5, 0, 327707, 5, 0, 196636, 5, 0, 262172, 5, 0, 327708, 5, 0, 196637, 5, 0, 262173, 5, 0, 327709, 5, 0, 196638, 5, 0, 262174, 5, 0, 327710, 5, 0, 196639, 5, 0, 262175, 5, 0, 327711, 5, 0, 196640, 5, 0, 262176, 5, 0, 327712, 5, 0, 196641, 5, 0, 262177, 5, 0, 327713, 5, 0, 196642, 5, 0, 262178, 5, 0, 327714, 5, 0, 196643, 5, 0, 262179, 5, 0, 327715, 5, 0, 196644, 5, 0, 262180, 5, 0, 327716, 5, 0, 196646, 5, 0, 262182, 5, 0, 327718, 5, 0, 196647, 5, 0, 262183, 5, 0, 327719, 5, 0, 196648, 5, 0, 262184, 5, 0, 327720, 5, 0, 196649, 5, 0, 262185, 5, 0, 327721, 5, 0, 196650, 5, 0, 262186, 5, 0, 327722, 5, 0, 196651, 5, 0, 262187, 5, 0, 327723, 5, 0, 262188, 5, 0, 327724, 5, 0, 262189, 5, 0, 327725, 5, 0, 262190, 5, 0, 327726, 5, 0, 262191, 5, 0, 327727, 5, 0, 196653, 5, 0, 196654, 5, 0, 196655, 5, 0, 393258, 5, 0, 458794, 5, 0, 524330, 5, 0, 589866, 5, 0, 655402, 5, 0, 720938, 5, 0, 786474, 5, 0, 393259, 5, 0, 458795, 5, 0, 524331, 5, 0, 589867, 5, 0, 655403, 5, 0, 720939, 5, 0, 786475, 5, 0, 458796, 5, 0, 524332, 5, 0, 589868, 5, 0, 655404, 5, 0, 720940, 5, 0, 786476, 5, 0, 458797, 5, 0, 524333, 5, 0, 589869, 5, 0, 655405, 5, 0, 720941, 5, 0, 786477, 5, 0, 458798, 5, 0, 524334, 5, 0, 589870, 5, 0, 655406, 5, 0, 720942, 5, 0, 786478, 5, 0, 458799, 5, 0, 524335, 5, 0, 589871, 5, 0, 655407, 5, 0, 720943, 5, 0, 786479, 5, 0, 852013, 5, 0, 917549, 5, 0, 983085, 5, 0, 1048621, 5, 0, 1114157, 5, 0, 1179693, 5, 0, 1245229, 5, 0, 852014, 5, 0, 917550, 5, 0, 983086, 5, 0, 1048622, 5, 0, 1114158, 5, 0, 1179694, 5, 0, 1245230, 5, 0, 852015, 5, 0, 917551, 5, 0, 983087, 5, 0, 1048623, 5, 0, 1114159, 5, 0, 1179695, 5, 0, 1245231, 5, 0, 458791, 5, 0, 524327, 5, 0, 589863, 5, 0, 655399, 5, 0, 720935, 5, 0, 786471, 5, 0, 852007, 5, 0, 917543, 5, 0, 983079, 5, 0, 458792, 5, 0, 524328, 5, 0, 589864, 5, 0, 655400, 5, 0, 720936, 5, 0, 786472, 5, 0, 852008, 5, 0, 917544, 5, 0, 983080, 5, 0, 917545, 5, 0, 983081, 5, 0, 917546, 5, 0, 983082, 5, 0, 917547, 5, 0, 983083, 5, 0, 1048618, 5, 0, 1114154, 5, 0, 1179690, 5, 0, 1245226, 5, 0, 1310762, 5, 0, 1376298, 5, 0, 1441834, 5, 0, 1507370, 5, 0, 1048619, 5, 0, 1114155, 5, 0, 1179691, 5, 0, 1245227, 5, 0, 1310763, 5, 0, 1376299, 5, 0, 1441835, 5, 0, 1507371, 5, 0, 1376300, 5, 0, 1441836, 5, 0, 1507372, 5, 0, 1376301, 5, 0, 1441837, 5, 0, 1507373, 5, 0, 1376302, 5, 0, 1441838, 5, 0, 1507374, 5, 0, 1376303, 5, 0, 1441839, 5, 0, 1507375, 5, 0, 1572910, 5, 0, 1572911, 5, 0, 1638442, 5, 0, 1703978, 5, 0, 1638443, 5, 0, 1703979, 5, 0, 1638444, 5, 0, 1703980, 5, 0, 1638445, 5, 0, 1703981, 5, 0, 1638446, 5, 0, 1703982, 5, 0, 1638447, 5, 0, 1703983, 5, 0, 1769514, 5, 0, 1835050, 5, 0, 1900586, 5, 0, 1769515, 5, 0, 1835051, 5, 0, 1900587, 5, 0, 1835052, 5, 0, 1900588, 5, 0, 1835053, 5, 0, 1900589, 5, 0, 1835054, 5, 0, 1900590, 5, 0, 1835055, 5, 0, 1900591, 5, 0, 1966126, 5, 0, 2031662, 5, 0, 2097198, 5, 0, 1966127, 5, 0, 2031663, 5, 0, 2097199, 5, 0, 2031654, 5, 0, 2097190, 5, 0, 2031655, 5, 0, 2097191, 5, 0, 2031656, 5, 0, 2097192, 5, 0, 2031657, 5, 0, 2097193, 5, 0, 2031658, 5, 0, 2097194, 5, 0, 2031659, 5, 0, 2097195, 5, 0, 2031660, 5, 0, 2097196, 5, 0, 2162726, 5, 0, 2228262, 5, 0, 2293798, 5, 0, 2359334, 5, 0, 2424870, 5, 0, 2490406, 5, 0, 2162727, 5, 0, 2228263, 5, 0, 2293799, 5, 0, 2359335, 5, 0, 2424871, 5, 0, 2490407, 5, 0, 2162728, 5, 0, 2228264, 5, 0, 2293800, 5, 0, 2359336, 5, 0, 2424872, 5, 0, 2490408, 5, 0, 2424867, 5, 0, 2490403, 5, 0, 2424868, 5, 0, 2490404, 5, 0, 2424869, 5, 0, 2490405, 5, 0, 2031651, 5, 0, 2097187, 5, 0, 2162723, 5, 0, 2228259, 5, 0, 2293795, 5, 0, 2359331, 5, 0, 2031652, 5, 0, 2097188, 5, 0, 2162724, 5, 0, 2228260, 5, 0, 2293796, 5, 0, 2359332, 5, 0, 2031647, 5, 0, 2097183, 5, 0, 2031648, 5, 0, 2097184, 5, 0, 2031649, 5, 0, 2097185, 5, 0, 2031650, 5, 0, 2097186, 5, 0, 2162715, 5, 0, 2228251, 5, 0, 2162716, 5, 0, 2228252, 5, 0, 2162717, 5, 0, 2228253, 5, 0, 2162718, 5, 0, 2228254, 5, 0, 2162719, 5, 0, 2228255, 5, 0, 2162720, 5, 0, 2228256, 5, 0, 2293791, 5, 0, 2359327, 5, 0, 2424863, 5, 0, 2490399, 5, 0, 2555935, 5, 0, 2621471, 5, 0, 2687007, 5, 0, 2293792, 5, 0, 2359328, 5, 0, 2424864, 5, 0, 2490400, 5, 0, 2555936, 5, 0, 2621472, 5, 0, 2687008, 5, 0, 2293793, 5, 0, 2359329, 5, 0, 2424865, 5, 0, 2490401, 5, 0, 2555937, 5, 0, 2621473, 5, 0, 2687009, 5, 0, 2162721, 5, 0, 2228257, 5, 0, 2621474, 5, 0, 2687010, 5, 0, 2621475, 5, 0, 2687011, 5, 0, 2621476, 5, 0, 2687012, 5, 0, 2621477, 5, 0, 2687013, 5, 0, 2621478, 5, 0, 2687014, 5, 0, 2621479, 5, 0, 2687015, 5, 0, 2621480, 5, 0, 2687016, 5, 0, 2621481, 5, 0, 2687017, 5, 0, 2621482, 5, 0, 2687018, 5, 0, 2621483, 5, 0, 2687019, 5, 0, 2424874, 5, 0, 2490410, 5, 0, 2424875, 5, 0, 2490411, 5, 0, 2424876, 5, 0, 2490412, 5, 0, 2424877, 5, 0, 2490413, 5, 0, 2424878, 5, 0, 2490414, 5, 0, 2424879, 5, 0, 2490415, 5, 0, 2555946, 5, 0, 2555947, 5, 0, 2228266, 5, 0, 2293802, 5, 0, 2228267, 5, 0, 2293803, 5, 0, 2228268, 5, 0, 2293804, 5, 0, 2228269, 5, 0, 2293805, 5, 0, 2228270, 5, 0, 2293806, 5, 0, 2228271, 5, 0, 2293807, 5, 0, 2359341, 5, 0, 2359342, 5, 0, 2359343, 5, 0, 2555949, 5, 0, 2621485, 5, 0, 2687021, 5, 0, 2752557, 5, 0, 2818093, 5, 0, 2883629, 5, 0, 2949165, 5, 0, 2555950, 5, 0, 2621486, 5, 0, 2687022, 5, 0, 2752558, 5, 0, 2818094, 5, 0, 2883630, 5, 0, 2949166, 5, 0, 2555951, 5, 0, 2621487, 5, 0, 2687023, 5, 0, 2752559, 5, 0, 2818095, 5, 0, 2883631, 5, 0, 2949167, 5, 0, 2818072, 5, 0, 2883608, 5, 0, 2949144, 5, 0, 2818073, 5, 0, 2883609, 5, 0, 2949145, 5, 0, 2818074, 5, 0, 2883610, 5, 0, 2949146, 5, 0, 2818075, 5, 0, 2883611, 5, 0, 2949147, 5, 0, 2818076, 5, 0, 2883612, 5, 0, 2949148, 5, 0, 2818077, 5, 0, 2883613, 5, 0, 2949149, 5, 0, 2818078, 5, 0, 2883614, 5, 0, 2949150, 5, 0, 2818079, 5, 0, 2883615, 5, 0, 2949151, 5, 0, 2818080, 5, 0, 2883616, 5, 0, 2949152, 5, 0, 2818081, 5, 0, 2883617, 5, 0, 2949153, 5, 0, 2818082, 5, 0, 2883618, 5, 0, 2949154, 5, 0, 2818083, 5, 0, 2883619, 5, 0, 2949155, 5, 0, 2818084, 5, 0, 2883620, 5, 0, 2949156, 5, 0, 2818085, 5, 0, 2883621, 5, 0, 2949157, 5, 0, 2818086, 5, 0, 2883622, 5, 0, 2949158, 5, 0, 2818087, 5, 0, 2883623, 5, 0, 2949159, 5, 0, 2818088, 5, 0, 2883624, 5, 0, 2949160, 5, 0, 2818089, 5, 0, 2883625, 5, 0, 2949161, 5, 0, 2818090, 5, 0, 2883626, 5, 0, 2949162, 5, 0, 2818091, 5, 0, 2883627, 5, 0, 2949163, 5, 0, 2818092, 5, 0, 2883628, 5, 0, 2949164, 5, 0, 2883591, 5, 0, 2949127, 5, 0, 2883592, 5, 0, 2949128, 5, 0, 2883593, 5, 0, 2949129, 5, 0, 2883594, 5, 0, 2949130, 5, 0, 2883595, 5, 0, 2949131, 5, 0, 2883596, 5, 0, 2949132, 5, 0, 2883597, 5, 0, 2949133, 5, 0, 2883598, 5, 0, 2949134, 5, 0, 2883599, 5, 0, 2949135, 5, 0, 2883600, 5, 0, 2949136, 5, 0, 2883601, 5, 0, 2949137, 5, 0, 2883602, 5, 0, 2949138, 5, 0, 2883603, 5, 0, 2949139, 5, 0, 2883604, 5, 0, 2949140, 5, 0, 2883605, 5, 0, 2949141, 5, 0, 2031623, 5, 0, 2097159, 5, 0, 2162695, 5, 0, 2228231, 5, 0, 2293767, 5, 0, 2359303, 5, 0, 2424839, 5, 0, 2490375, 5, 0, 2555911, 5, 0, 2621447, 5, 0, 2686983, 5, 0, 2752519, 5, 0, 2818055, 5, 0, 2031624, 5, 0, 2097160, 5, 0, 2162696, 5, 0, 2228232, 5, 0, 2293768, 5, 0, 2359304, 5, 0, 2424840, 5, 0, 2490376, 5, 0, 2555912, 5, 0, 2621448, 5, 0, 2686984, 5, 0, 2752520, 5, 0, 2818056, 5, 0, 2228233, 5, 0, 2293769, 5, 0, 2359305, 5, 0, 2228234, 5, 0, 2293770, 5, 0, 2359306, 5, 0, 2228235, 5, 0, 2293771, 5, 0, 2359307, 5, 0, 2228236, 5, 0, 2293772, 5, 0, 2359308, 5, 0, 2228237, 5, 0, 2293773, 5, 0, 2359309, 5, 0, 2228238, 5, 0, 2293774, 5, 0, 2359310, 5, 0, 2228239, 5, 0, 2293775, 5, 0, 2359311, 5, 0, 2228240, 5, 0, 2293776, 5, 0, 2359312, 5, 0, 2228241, 5, 0, 2293777, 5, 0, 2359313, 5, 0, 2228242, 5, 0, 2293778, 5, 0, 2359314, 5, 0, 2228243, 5, 0, 2293779, 5, 0, 2359315, 5, 0, 2228244, 5, 0, 2293780, 5, 0, 2359316, 5, 0, 2228245, 5, 0, 2293781, 5, 0, 2359317, 5, 0, 2228246, 5, 0, 2293782, 5, 0, 2359318, 5, 0, 2424851, 5, 0, 2490387, 5, 0, 2555923, 5, 0, 2424852, 5, 0, 2490388, 5, 0, 2555924, 5, 0, 2424853, 5, 0, 2490389, 5, 0, 2555925, 5, 0, 2490383, 5, 0, 2555919, 5, 0, 2490384, 5, 0, 2555920, 5, 0, 2490385, 5, 0, 2555921, 5, 0, 2490386, 5, 0, 2555922, 5, 0, 2424854, 5, 0, 2490390, 5, 0, 2555926, 5, 0, 1507347, 5, 0, 1572883, 5, 0, 1638419, 5, 0, 1703955, 5, 0, 1769491, 5, 0, 1835027, 5, 0, 1900563, 5, 0, 1966099, 5, 0, 2031635, 5, 0, 2097171, 5, 0, 2162707, 5, 0, 1507348, 5, 0, 1572884, 5, 0, 1638420, 5, 0, 1703956, 5, 0, 1769492, 5, 0, 1835028, 5, 0, 1900564, 5, 0, 1966100, 5, 0, 2031636, 5, 0, 2097172, 5, 0, 2162708, 5, 0, 1507349, 5, 0, 1572885, 5, 0, 1638421, 5, 0, 1703957, 5, 0, 1769493, 5, 0, 1835029, 5, 0, 1900565, 5, 0, 1966101, 5, 0, 2031637, 5, 0, 2097173, 5, 0, 2162709, 5, 0, 1507342, 5, 0, 1572878, 5, 0, 1638414, 5, 0, 1507343, 5, 0, 1572879, 5, 0, 1638415, 5, 0, 1507344, 5, 0, 1572880, 5, 0, 1638416, 5, 0, 1507345, 5, 0, 1572881, 5, 0, 1638417, 5, 0, 1507346, 5, 0, 1572882, 5, 0, 1638418, 5, 0, 1507350, 5, 0, 1572886, 5, 0, 1638422, 5, 0, 1703958, 5, 0, 1769494, 5, 0, 1835030, 5, 0, 1900566, 5, 0, 1966102, 5, 0, 2031638, 5, 0, 2097174, 5, 0, 2162710, 5, 0, 1703950, 5, 0, 1769486, 5, 0, 1835022, 5, 0, 1900558, 5, 0, 1966094, 5, 0, 2031630, 5, 0, 2097166, 5, 0, 1703951, 5, 0, 1769487, 5, 0, 1835023, 5, 0, 1900559, 5, 0, 1966095, 5, 0, 2031631, 5, 0, 2097167, 5, 0, 1703952, 5, 0, 1769488, 5, 0, 1835024, 5, 0, 1900560, 5, 0, 1966096, 5, 0, 2031632, 5, 0, 2097168, 5, 0, 1703953, 5, 0, 1769489, 5, 0, 1835025, 5, 0, 1900561, 5, 0, 1966097, 5, 0, 2031633, 5, 0, 2097169, 5, 0, 1966090, 5, 0, 2031626, 5, 0, 2097162, 5, 0, 1966091, 5, 0, 2031627, 5, 0, 2097163, 5, 0, 1966092, 5, 0, 2031628, 5, 0, 2097164, 5, 0, 1966093, 5, 0, 2031629, 5, 0, 2097165, 5, 0, 1507338, 5, 0, 1572874, 5, 0, 1638410, 5, 0, 1703946, 5, 0, 1769482, 5, 0, 1835018, 5, 0, 1900554, 5, 0, 1507339, 5, 0, 1572875, 5, 0, 1638411, 5, 0, 1703947, 5, 0, 1769483, 5, 0, 1835019, 5, 0, 1900555, 5, 0, 1507340, 5, 0, 1572876, 5, 0, 1638412, 5, 0, 1703948, 5, 0, 1769484, 5, 0, 1835020, 5, 0, 1900556, 5, 0, 1179642, 5, 0, 1245178, 5, 0, 1179643, 5, 0, 1245179, 5, 0, 1179644, 5, 0, 1245180, 5, 0, 1179645, 5, 0, 1245181, 5, 0, 1179646, 5, 0, 1245182, 5, 0, 1179647, 5, 0, 1245183, 5, 0, 1114112, 5, 0, 1179648, 5, 0, 1114113, 5, 0, 1179649, 5, 0, 1114114, 5, 0, 1179650, 5, 0, 1114115, 5, 0, 1179651, 5, 0, 1114116, 5, 0, 1179652, 5, 0, 1114117, 5, 0, 1179653, 5, 0, 1114118, 5, 0, 1179654, 5, 0, 1114119, 5, 0, 1179655, 5, 0, 1114120, 5, 0, 1179656, 5, 0, 851972, 5, 0, 917508, 5, 0, 983044, 5, 0, 1048580, 5, 0, 851973, 5, 0, 917509, 5, 0, 983045, 5, 0, 1048581, 5, 0, 851974, 5, 0, 917510, 5, 0, 983046, 5, 0, 1048582, 5, 0, 851975, 5, 0, 917511, 5, 0, 983047, 5, 0, 1048583, 5, 0, 851976, 5, 0, 917512, 5, 0, 983048, 5, 0, 1048584, 5, 0, 851977, 5, 0, 917513, 5, 0, 983049, 5, 0, 1048585, 5, 0, 1114121, 5, 0, 1179657, 5, 0, 1310714, 5, 0, 1376250, 5, 0, 1441786, 5, 0, 1507322, 5, 0, 1572858, 5, 0, 1638394, 5, 0, 1703930, 5, 0, 1769466, 5, 0, 1835002, 5, 0, 1900538, 5, 0, 1966074, 5, 0, 1310715, 5, 0, 1376251, 5, 0, 1441787, 5, 0, 1507323, 5, 0, 1572859, 5, 0, 1638395, 5, 0, 1703931, 5, 0, 1769467, 5, 0, 1835003, 5, 0, 1900539, 5, 0, 1966075, 5, 0, 1310716, 5, 0, 1376252, 5, 0, 1441788, 5, 0, 1507324, 5, 0, 1572860, 5, 0, 1638396, 5, 0, 1703932, 5, 0, 1769468, 5, 0, 1835004, 5, 0, 1900540, 5, 0, 1966076, 5, 0, 1310718, 5, 0, 1376254, 5, 0, 1441790, 5, 0, 1507326, 5, 0, 1572862, 5, 0, 1638398, 5, 0, 1703934, 5, 0, 1769470, 5, 0, 1835006, 5, 0, 1900542, 5, 0, 1966078, 5, 0, 2031614, 5, 0, 2097150, 5, 0, 2162686, 5, 0, 1310719, 5, 0, 1376255, 5, 0, 1441791, 5, 0, 1507327, 5, 0, 1572863, 5, 0, 1638399, 5, 0, 1703935, 5, 0, 1769471, 5, 0, 1835007, 5, 0, 1900543, 5, 0, 1966079, 5, 0, 2031615, 5, 0, 2097151, 5, 0, 2162687, 5, 0, 1245184, 5, 0, 1310720, 5, 0, 1376256, 5, 0, 1441792, 5, 0, 1507328, 5, 0, 1572864, 5, 0, 1638400, 5, 0, 1703936, 5, 0, 1769472, 5, 0, 1835008, 5, 0, 1900544, 5, 0, 1966080, 5, 0, 2031616, 5, 0, 2097152, 5, 0, 1245185, 5, 0, 1310721, 5, 0, 1376257, 5, 0, 1441793, 5, 0, 1507329, 5, 0, 1572865, 5, 0, 1638401, 5, 0, 1703937, 5, 0, 1769473, 5, 0, 1835009, 5, 0, 1900545, 5, 0, 1966081, 5, 0, 2031617, 5, 0, 2097153, 5, 0, 1638402, 5, 0, 1703938, 5, 0, 1769474, 5, 0, 1835010, 5, 0, 1900546, 5, 0, 1966082, 5, 0, 2031618, 5, 0, 2097154, 5, 0, 1638403, 5, 0, 1703939, 5, 0, 1769475, 5, 0, 1835011, 5, 0, 1900547, 5, 0, 1966083, 5, 0, 2031619, 5, 0, 2097155, 5, 0, 1638404, 5, 0, 1703940, 5, 0, 1769476, 5, 0, 1835012, 5, 0, 1900548, 5, 0, 1966084, 5, 0, 2031620, 5, 0, 2097156, 5, 0, 1638405, 5, 0, 1703941, 5, 0, 1769477, 5, 0, 1835013, 5, 0, 1900549, 5, 0, 1966085, 5, 0, 2031621, 5, 0, 2097157, 5, 0, 1703942, 5, 0, 1769478, 5, 0, 1835014, 5, 0, 1900550, 5, 0, 1703943, 5, 0, 1769479, 5, 0, 1835015, 5, 0, 1900551, 5, 0, 1769480, 5, 0, 1835016, 5, 0, 1769481, 5, 0, 1835017, 5, 0, 1900552, 5, 0, 1310723, 5, 0, 1376259, 5, 0, 1441795, 5, 0, 1507331, 5, 0, 1310724, 5, 0, 1376260, 5, 0, 1441796, 5, 0, 1507332, 5, 0, 1310725, 5, 0, 1376261, 5, 0, 1441797, 5, 0, 1507333, 5, 0, 1310726, 5, 0, 1376262, 5, 0, 1441798, 5, 0, 1507334, 5, 0, 1507335, 5, 0, 1572871, 5, 0, 1507336, 5, 0, 1572872, 5, 0, 1507337, 5, 0, 1572873, 5, 0, 1572870, 5, 0, 1638408, 5, 0, 1638409, 5, 0, 1310727, 5, 0, 1376263, 5, 0, 1310728, 5, 0, 1376264, 5, 0, 1310729, 5, 0, 1376265, 5, 0, 1310730, 5, 0, 1376266, 5, 0, 1310731, 5, 0, 1376267, 5, 0, 1310732, 5, 0, 1376268, 5, 0, 1310733, 5, 0, 1376269, 5, 0, 1310734, 5, 0, 1376270, 5, 0, 1310735, 5, 0, 1376271, 5, 0, 1310736, 5, 0, 1376272, 5, 0, 1179663, 5, 0, 1245199, 5, 0, 1179664, 5, 0, 1245200, 5, 0, 655375, 5, 0, 720911, 5, 0, 786447, 5, 0, 851983, 5, 0, 917519, 5, 0, 983055, 5, 0, 1048591, 5, 0, 655376, 5, 0, 720912, 5, 0, 786448, 5, 0, 851984, 5, 0, 917520, 5, 0, 983056, 5, 0, 1048592, 5, 0, 655377, 5, 0, 720913, 5, 0, 786449, 5, 0, 851985, 5, 0, 917521, 5, 0, 983057, 5, 0, 1048593, 5, 0, 655378, 5, 0, 720914, 5, 0, 786450, 5, 0, 851986, 5, 0, 917522, 5, 0, 983058, 5, 0, 1048594, 5, 0, 851987, 5, 0, 917523, 5, 0, 983059, 5, 0, 1048595, 5, 0, 851988, 5, 0, 917524, 5, 0, 983060, 5, 0, 1048596, 5, 0, 851989, 5, 0, 917525, 5, 0, 983061, 5, 0, 1048597, 5, 0, 655380, 5, 0, 720916, 5, 0, 786452, 5, 0, 655381, 5, 0, 720917, 5, 0, 786453, 5, 0, 655382, 5, 0, 720918, 5, 0, 786454, 5, 0, 851990, 5, 0, 917526, 5, 0, 983062, 5, 0, 1048598, 5, 0, 851979, 5, 0, 917515, 5, 0, 983051, 5, 0, 1048587, 5, 0, 1114123, 5, 0, 1179659, 5, 0, 1245195, 5, 0, 851980, 5, 0, 917516, 5, 0, 983052, 5, 0, 1048588, 5, 0, 1114124, 5, 0, 1179660, 5, 0, 1245196, 5, 0, 851981, 5, 0, 917517, 5, 0, 983053, 5, 0, 1048589, 5, 0, 1114125, 5, 0, 1179661, 5, 0, 1245197, 5, 0, 851982, 5, 0, 917518, 5, 0, 983054, 5, 0, 1048590, 5, 0, 262152, 5, 0, 327688, 5, 0, 393224, 5, 0, 458760, 5, 0, 524296, 5, 0, 589832, 5, 0, 655368, 5, 0, 720904, 5, 0, 262153, 5, 0, 327689, 5, 0, 393225, 5, 0, 458761, 5, 0, 524297, 5, 0, 589833, 5, 0, 655369, 5, 0, 720905, 5, 0, 589831, 5, 0, 655367, 5, 0, 720903, 5, 0, 262154, 5, 0, 327690, 5, 0, 262155, 5, 0, 327691, 5, 0, 393227, 5, 0, 458763, 5, 0, 524299, 5, 0, 589835, 5, 0, 655371, 5, 0, 720907, 5, 0, 262156, 5, 0, 327692, 5, 0, 393228, 5, 0, 458764, 5, 0, 524300, 5, 0, 589836, 5, 0, 655372, 5, 0, 720908, 5, 0, 262157, 5, 0, 327693, 5, 0, 393229, 5, 0, 458765, 5, 0, 524301, 5, 0, 589837, 5, 0, 655373, 5, 0, 720909, 5, 0, 655374, 5, 0, 720910, 5, 0, 655384, 5, 0, 720920, 5, 0, 786456, 5, 0, 851992, 5, 0, 917528, 5, 0, 983064, 5, 0, 1048600, 5, 0, 1114136, 5, 0, 655385, 5, 0, 720921, 5, 0, 786457, 5, 0, 851993, 5, 0, 917529, 5, 0, 983065, 5, 0, 1048601, 5, 0, 1114137, 5, 0, 589850, 5, 0, 655386, 5, 0, 720922, 5, 0, 589851, 5, 0, 655387, 5, 0, 720923, 5, 0, 589852, 5, 0, 655388, 5, 0, 720924, 5, 0, 786459, 5, 0, 786460, 5, 0, 2686986, 5, 0, 2752522, 5, 0, 2686987, 5, 0, 2752523, 5, 0, 2686988, 5, 0, 2752524, 5, 0, 2686989, 5, 0, 2752525, 5, 0, 2686990, 5, 0, 2752526, 5, 0, 2686991, 5, 0, 2752527, 5, 0, 2686992, 5, 0, 2752528, 5, 0, 2686993, 5, 0, 2752529, 5, 0, 2686994, 5, 0, 2752530, 5, 0, 2686995, 5, 0, 2752531, 5, 0, 2686996, 5, 0, 2752532, 5, 0, 2686997, 5, 0, 2752533, 5, 0, 2686998, 5, 0, 2752534, 5, 0, 2686999, 5, 0, 2752535, 5, 0, 2687000, 5, 0, 2752536, 5, 0, 2687001, 5, 0, 2752537, 5, 0, 2687002, 5, 0, 2752538, 5, 0, 2687003, 5, 0, 2752539, 5, 0, 2687004, 5, 0, 2752540, 5, 0, 2687005, 5, 0, 2752541, 5, 0, 2359320, 5, 0, 2424856, 5, 0, 2490392, 5, 0, 2555928, 5, 0, 2621464, 5, 0, 2359321, 5, 0, 2424857, 5, 0, 2490393, 5, 0, 2555929, 5, 0, 2621465, 5, 0, 2359322, 5, 0, 2424858, 5, 0, 2490394, 5, 0, 2555930, 5, 0, 2621466, 5, 0, 2359323, 5, 0, 2424859, 5, 0, 2490395, 5, 0, 2555931, 5, 0, 2621467, 5, 0, 2359324, 5, 0, 2424860, 5, 0, 2490396, 5, 0, 2555932, 5, 0, 2621468, 5, 0, 2359325, 5, 0, 2424861, 5, 0, 2490397, 5, 0, 2555933, 5, 0, 2621469, 5, 0, 1900568, 5, 0, 1966104, 5, 0, 2031640, 5, 0, 2097176, 5, 0, 2162712, 5, 0, 2228248, 5, 0, 2293784, 5, 0, 1900569, 5, 0, 1966105, 5, 0, 2031641, 5, 0, 2097177, 5, 0, 2162713, 5, 0, 2228249, 5, 0, 2293785, 5, 0, 1900570, 5, 0, 1966106, 5, 0, 2031642, 5, 0, 1900571, 5, 0, 1966107, 5, 0, 2031643, 5, 0, 1900572, 5, 0, 1966108, 5, 0, 2031644, 5, 0, 1900573, 5, 0, 1966109, 5, 0, 2031645, 5, 0, 1703960, 5, 0, 1769496, 5, 0, 1703961, 5, 0, 1769497, 5, 0, 1703962, 5, 0, 1769498, 5, 0, 1703963, 5, 0, 1769499, 5, 0, 1703964, 5, 0, 1769500, 5, 0, 1703965, 5, 0, 1769501, 5, 0, 1835036, 5, 0, 1835037, 5, 0, 1572895, 5, 0, 1638431, 5, 0, 1572896, 5, 0, 1638432, 5, 0, 1572897, 5, 0, 1638433, 5, 0, 1572898, 5, 0, 1638434, 5, 0, 1572899, 5, 0, 1638435, 5, 0, 1572900, 5, 0, 1638436, 5, 0, 1572901, 5, 0, 1638437, 5, 0, 1572902, 5, 0, 1638438, 5, 0, 1572903, 5, 0, 1638439, 5, 0, 1572904, 5, 0, 1638440, 5, 0, 1769503, 5, 0, 1835039, 5, 0, 1900575, 5, 0, 1769504, 5, 0, 1835040, 5, 0, 1900576, 5, 0, 1769505, 5, 0, 1835041, 5, 0, 1900577, 5, 0, 1769506, 5, 0, 1835042, 5, 0, 1900578, 5, 0, 1769507, 5, 0, 1835043, 5, 0, 1900579, 5, 0, 1769508, 5, 0, 1835044, 5, 0, 1900580, 5, 0, 1769509, 5, 0, 1835045, 5, 0, 1900581, 5, 0, 1769510, 5, 0, 1835046, 5, 0, 1900582, 5, 0, 1769511, 5, 0, 1835047, 5, 0, 1900583, 5, 0, 1769512, 5, 0, 1835048, 5, 0, 1900584, 5, 0, 1703967, 5, 0, 1703968, 5, 0, 2031661, 5, 0, 2097197, 5, 0, 1114151, 5, 0, 1179687, 5, 0, 1245223, 5, 0, 1310759, 5, 0, 1376295, 5, 0, 1441831, 5, 0, 1507367, 5, 0, 1114152, 5, 0, 1179688, 5, 0, 1245224, 5, 0, 1310760, 5, 0, 1376296, 5, 0, 1441832, 5, 0, 1507368, 5, 0, 1114153, 5, 0, 1179689, 5, 0, 1245225, 5, 0, 1310761, 5, 0, 655396, 5, 0, 720932, 5, 0, 786468, 5, 0, 852004, 5, 0, 917540, 5, 0, 983076, 5, 0, 1048612, 5, 0, 1114148, 5, 0, 1179684, 5, 0, 1245220, 5, 0, 1310756, 5, 0, 1376292, 5, 0, 1441828, 5, 0, 655397, 5, 0, 720933, 5, 0, 786469, 5, 0, 852005, 5, 0, 917541, 5, 0, 983077, 5, 0, 1048613, 5, 0, 1114149, 5, 0, 1179685, 5, 0, 1245221, 5, 0, 1310757, 5, 0, 1376293, 5, 0, 1441829, 5, 0, 1376274, 5, 0, 1376275, 5, 0, 1376276, 5, 0, 1376277, 5, 0, 1376278, 5, 0, 1376279, 5, 0, 1376280, 5, 0, 1376281, 5, 0, 1376282, 5, 0, 1376283, 5, 0, 1376284, 5, 0, 1376285, 5, 0, 1376286, 5, 0, 1376287, 5, 0, 1376288, 5, 0, 1376289, 5, 0, 1376290, 5, 0, 1376291, 5, 0, 1441816, 5, 0, 1441817, 5, 0, 1441818, 5, 0, 1441819, 5, 0, 1441820, 5, 0, 1441821, 5, 0, 1441822, 5, 0, 1441823, 5, 0, 1441824, 5, 0, 1441825, 5, 0, 1441826, 5, 0, 1441827, 5, 0, 1507352, 5, 0, 1572888, 5, 0, 1507353, 5, 0, 1572889, 5, 0, 1507354, 5, 0, 1572890, 5, 0, 1507355, 5, 0, 1572891, 5, 0, 1507356, 5, 0, 1572892, 5, 0, 1507357, 5, 0, 1572893, 5, 0, 1179666, 5, 0, 1245202, 5, 0, 1310738, 5, 0, 1179667, 5, 0, 1245203, 5, 0, 1310739, 5, 0, 1179668, 5, 0, 1245204, 5, 0, 1310740, 5, 0, 1179669, 5, 0, 1245205, 5, 0, 1310741, 5, 0, 1179670, 5, 0, 1245206, 5, 0, 1310742, 5, 0, 1310744, 5, 0, 1310743, 5, 0, 1310745, 5, 0, 1179676, 5, 0, 1114140, 5, 0, 1048604, 5, 0, 983068, 5, 0, 917532, 5, 0, 917531, 5, 0, 983067, 5, 0, 983066, 5, 0, 1048602, 5, 0, 1114138, 5, 0, 1114139, 5, 0, 1048603, 5, 0, 1179675, 5, 0, 1245211, 5, 0, 1245212, 5, 0, 1245213, 5, 0, 1179677, 5, 0, 1179678, 5, 0, 1245214, 5, 0, 1245215, 5, 0, 1179679, 5, 0, 1179680, 5, 0, 1245216, 5, 0, 1245217, 5, 0, 1179681, 5, 0, 1114145, 5, 0, 1048609, 5, 0, 983073, 5, 0, 917537, 5, 0, 852001, 5, 0, 786465, 5, 0, 720929, 5, 0, 655393, 5, 0, 655394, 5, 0, 720930, 5, 0, 786466, 5, 0, 852002, 5, 0, 917538, 5, 0, 983074, 5, 0, 1048610, 5, 0, 1114146, 5, 0, 1179682, 5, 0, 1245218, 5, 0, 720931, 5, 0, 655395, 5, 0, 458787, 5, 0, 393251, 5, 0, 393250, 5, 0, 458786, 5, 0, 458785, 5, 0, 458784, 5, 0, 458783, 5, 0, 458782, 5, 0, 524318, 5, 0, 589854, 5, 0, 655390, 5, 0, 720926, 5, 0, 786462, 5, 0, 851998, 5, 0, 917534, 5, 0, 983070, 5, 0, 1048606, 5, 0, 1048607, 5, 0, 983071, 5, 0, 917535, 5, 0, 851999, 5, 0, 786463, 5, 0, 720927, 5, 0, 655391, 5, 0, 589855, 5, 0, 524319, 5, 0, 524320, 5, 0, 524321, 5, 0, 524322, 5, 0, 524323, 5, 0, 524324, 5, 0, 458788, 5, 0, 393252, 5, 0, 458789, 5, 0, 524325, 5, 0, 524326, 5, 0, 458790, 5, 0, 393254, 5, 0, 393255, 5, 0, 2359291, 5, 0, 2293755, 5, 0, 2228219, 5, 0, 2162683, 5, 0, 2097147, 5, 0, 2097146, 5, 0, 2162682, 5, 0, 2228218, 5, 0, 2293754, 5, 0, 2359290, 5, 0, 2424826, 5, 0, 2490362, 5, 0, 2555898, 5, 0, 2621434, 5, 0, 2686970, 5, 0, 2752506, 5, 0, 2818042, 5, 0, 2818043, 5, 0, 2752507, 5, 0, 2686971, 5, 0, 2621435, 5, 0, 2555899, 5, 0, 2490363, 5, 0, 2424827, 5, 0, 2424828, 5, 0, 2359292, 5, 0, 2293756, 5, 0, 2228220, 5, 0, 2162684, 5, 0, 2097148, 5, 0, 2097149, 5, 0, 2162685, 5, 0, 2490364, 5, 0, 2555900, 5, 0, 2621436, 5, 0, 2686972, 5, 0, 2752508, 5, 0, 2818044, 5, 0, 2818045, 5, 0, 2752509, 5, 0, 2752510, 5, 0, 2818046, 5, 0, 2818047, 5, 0, 2752511, 5, 0, 2686976, 5, 0, 2752512, 5, 0, 2818048, 5, 0, 2883584, 5, 0, 2949119, 5, 0, 2949118, 5, 0, 2949117, 5, 0, 2949116, 5, 0, 2949115, 5, 0, 2949114, 5, 0, 3014650, 5, 0, 3014651, 5, 0, 3014652, 5, 0, 3014653, 5, 0, 3014654, 5, 0, 3014655, 5, 0, 2949120, 5, 0, 2949121, 5, 0, 2883585, 5, 0, 2818049, 5, 0, 2752513, 5, 0, 2686977, 5, 0, 2883586, 5, 0, 2949122, 5, 0, 2949123, 5, 0, 2883587, 5, 0, 2818051, 5, 0, 2752515, 5, 0, 2686979, 5, 0, 2621443, 5, 0, 2555907, 5, 0, 2490371, 5, 0, 2424835, 5, 0, 2359299, 5, 0, 2293763, 5, 0, 2228227, 5, 0, 2228226, 5, 0, 2228225, 5, 0, 2228224, 5, 0, 2293759, 5, 0, 2293758, 5, 0, 2359294, 5, 0, 2424830, 5, 0, 2490366, 5, 0, 2555902, 5, 0, 2621438, 5, 0, 2621439, 5, 0, 2555903, 5, 0, 2490367, 5, 0, 2424831, 5, 0, 2359295, 5, 0, 2293760, 5, 0, 2359296, 5, 0, 2424832, 5, 0, 2490368, 5, 0, 2555904, 5, 0, 2555905, 5, 0, 2490369, 5, 0, 2424833, 5, 0, 2359297, 5, 0, 2293761, 5, 0, 2293762, 5, 0, 2359298, 5, 0, 2228228, 5, 0, 2293764, 5, 0, 2359300, 5, 0, 2424836, 5, 0, 2490372, 5, 0, 2555908, 5, 0, 2621444, 5, 0, 2686980, 5, 0, 2752516, 5, 0, 2818052, 5, 0, 2883588, 5, 0, 2949124, 5, 0, 2949125, 5, 0, 2883589, 5, 0, 2818053, 5, 0, 2752517, 5, 0, 2686981, 5, 0, 2621445, 5, 0, 2555909, 5, 0, 2490373, 5, 0, 2424837, 5, 0, 2359301, 5, 0, 2293765, 5, 0, 2228229, 5, 0, 2555916, 5, 0, 2490380, 5, 0, 2490379, 5, 0, 2490378, 5, 0, 2490377, 5, 0, 2555913, 5, 0, 2555914, 5, 0, 2621450, 5, 0, 2621451, 5, 0, 2555915, 5, 0, 2621452, 5, 0, 2621453, 5, 0, 2555917, 5, 0, 2490381, 5, 0, 2883606, 5, 0, 2949142, 5, 0, -196631, 5, 0, -131095, 5, 0, -65559, 5, 0, -23, 5, 0, 65513, 5, 0, 131049, 5, 0, 196585, 5, 0, 262121, 5, 0, 327657, 5, 0, 393193, 5, 0, 458729, 5, 0, 524265, 5, 0, 589801, 5, 0, 655337, 5, 0, 720873, 5, 0, 786409, 5, 0, 851945, 5, 0, 917481, 5, 0, 983017, 5, 0, 1048553, 5, 0, 1114089, 5, 0, 1179625, 5, 0, 1245161, 5, 0, 1310697, 5, 0, 1376233, 5, 0, 1441769, 5, 0, 1507305, 5, 0, 1572841, 5, 0, 1638377, 5, 0, 1703913, 5, 0, 1769449, 5, 0, 1834985, 5, 0, 1900521, 5, 0, 1966057, 5, 0, 2031593, 5, 0, 2097129, 5, 0, 2162665, 5, 0, 2228201, 5, 0, 2293737, 5, 0, 2359273, 5, 0, 2424809, 5, 0, 2490345, 5, 0, 2555881, 5, 0, 2621417, 5, 0, 2686953, 5, 0, 2752489, 5, 0, 2818025, 5, 0, 2883561, 5, 0, 2949097, 5, 0, 3014633, 5, 0, 3080169, 5, 0, -196630, 5, 0, -131094, 5, 0, -65558, 5, 0, -22, 5, 0, 65514, 5, 0, 131050, 5, 0, 196586, 5, 0, 262122, 5, 0, 327658, 5, 0, 393194, 5, 0, 458730, 5, 0, 524266, 5, 0, 589802, 5, 0, 655338, 5, 0, 720874, 5, 0, 786410, 5, 0, 851946, 5, 0, 917482, 5, 0, 983018, 5, 0, 1048554, 5, 0, 1114090, 5, 0, 1179626, 5, 0, 1245162, 5, 0, 1310698, 5, 0, 1376234, 5, 0, 1441770, 5, 0, 1507306, 5, 0, 1572842, 5, 0, 1638378, 5, 0, 1703914, 5, 0, 1769450, 5, 0, 1834986, 5, 0, 1900522, 5, 0, 1966058, 5, 0, 2031594, 5, 0, 2097130, 5, 0, 2162666, 5, 0, 2228202, 5, 0, 2293738, 5, 0, 2359274, 5, 0, 2424810, 5, 0, 2490346, 5, 0, 2555882, 5, 0, 2621418, 5, 0, 2686954, 5, 0, 2752490, 5, 0, 2818026, 5, 0, 2883562, 5, 0, 2949098, 5, 0, 3014634, 5, 0, 3080170, 5, 0, -196629, 5, 0, -131093, 5, 0, -65557, 5, 0, -21, 5, 0, 65515, 5, 0, 131051, 5, 0, 196587, 5, 0, 262123, 5, 0, 327659, 5, 0, 393195, 5, 0, 458731, 5, 0, 524267, 5, 0, 589803, 5, 0, 655339, 5, 0, 720875, 5, 0, 786411, 5, 0, 851947, 5, 0, 917483, 5, 0, 983019, 5, 0, 1048555, 5, 0, 1114091, 5, 0, 1179627, 5, 0, 1245163, 5, 0, 1310699, 5, 0, 1376235, 5, 0, 1441771, 5, 0, 1507307, 5, 0, 1572843, 5, 0, 1638379, 5, 0, 1703915, 5, 0, 1769451, 5, 0, 1834987, 5, 0, 1900523, 5, 0, 1966059, 5, 0, 2031595, 5, 0, 2097131, 5, 0, 2162667, 5, 0, 2228203, 5, 0, 2293739, 5, 0, 2359275, 5, 0, 2424811, 5, 0, 2490347, 5, 0, 2555883, 5, 0, 2621419, 5, 0, 2686955, 5, 0, 2752491, 5, 0, 2818027, 5, 0, 2883563, 5, 0, 2949099, 5, 0, 3014635, 5, 0, 3080171, 5, 0, -196628, 5, 0, -131092, 5, 0, -65556, 5, 0, -20, 5, 0, 65516, 5, 0, 131052, 5, 0, 196588, 5, 0, 262124, 5, 0, 327660, 5, 0, 393196, 5, 0, 458732, 5, 0, 524268, 5, 0, 589804, 5, 0, 655340, 5, 0, 720876, 5, 0, 786412, 5, 0, 851948, 5, 0, 917484, 5, 0, 983020, 5, 0, 1048556, 5, 0, 1114092, 5, 0, 1179628, 5, 0, 1245164, 5, 0, 1310700, 5, 0, 1376236, 5, 0, 1441772, 5, 0, 1507308, 5, 0, 1572844, 5, 0, 1638380, 5, 0, 1703916, 5, 0, 1769452, 5, 0, 1834988, 5, 0, 1900524, 5, 0, 1966060, 5, 0, 2031596, 5, 0, 2097132, 5, 0, 2162668, 5, 0, 2228204, 5, 0, 2293740, 5, 0, 2359276, 5, 0, 2424812, 5, 0, 2490348, 5, 0, 2555884, 5, 0, 2621420, 5, 0, 2686956, 5, 0, 2752492, 5, 0, 2818028, 5, 0, 2883564, 5, 0, 2949100, 5, 0, 3014636, 5, 0, 3080172, 5, 0, -196627, 5, 0, -131091, 5, 0, -65555, 5, 0, -19, 5, 0, 65517, 5, 0, 131053, 5, 0, 196589, 5, 0, 262125, 5, 0, 327661, 5, 0, 393197, 5, 0, 458733, 5, 0, 524269, 5, 0, 589805, 5, 0, 655341, 5, 0, 720877, 5, 0, 786413, 5, 0, 851949, 5, 0, 917485, 5, 0, 983021, 5, 0, 1048557, 5, 0, 1114093, 5, 0, 1179629, 5, 0, 1245165, 5, 0, 1310701, 5, 0, 1376237, 5, 0, 1441773, 5, 0, 1507309, 5, 0, 1572845, 5, 0, 1638381, 5, 0, 1703917, 5, 0, 1769453, 5, 0, 1834989, 5, 0, 1900525, 5, 0, 1966061, 5, 0, 2031597, 5, 0, 2097133, 5, 0, 2162669, 5, 0, 2228205, 5, 0, 2293741, 5, 0, 2359277, 5, 0, 2424813, 5, 0, 2490349, 5, 0, 2555885, 5, 0, 2621421, 5, 0, 2686957, 5, 0, 2752493, 5, 0, 2818029, 5, 0, 2883565, 5, 0, 2949101, 5, 0, 3014637, 5, 0, 3080173, 5, 0, -196626, 5, 0, -131090, 5, 0, -65554, 5, 0, -18, 5, 0, 65518, 5, 0, 131054, 5, 0, 196590, 5, 0, 262126, 5, 0, 327662, 5, 0, 393198, 5, 0, 458734, 5, 0, 524270, 5, 0, 589806, 5, 0, 655342, 5, 0, 720878, 5, 0, 786414, 5, 0, 851950, 5, 0, 917486, 5, 0, 983022, 5, 0, 1048558, 5, 0, 1114094, 5, 0, 1179630, 5, 0, 1245166, 5, 0, 1310702, 5, 0, 1376238, 5, 0, 1441774, 5, 0, 1507310, 5, 0, 1572846, 5, 0, 1638382, 5, 0, 1703918, 5, 0, 1769454, 5, 0, 1834990, 5, 0, 1900526, 5, 0, 1966062, 5, 0, 2031598, 5, 0, 2097134, 5, 0, 2162670, 5, 0, 2228206, 5, 0, 2293742, 5, 0, 2359278, 5, 0, 2424814, 5, 0, 2490350, 5, 0, 2555886, 5, 0, 2621422, 5, 0, 2686958, 5, 0, 2752494, 5, 0, 2818030, 5, 0, 2883566, 5, 0, 2949102, 5, 0, 3014638, 5, 0, 3080174, 5, 0, -196625, 5, 0, -131089, 5, 0, -65553, 5, 0, -17, 5, 0, 65519, 5, 0, 131055, 5, 0, 196591, 5, 0, 262127, 5, 0, 327663, 5, 0, 393199, 5, 0, 458735, 5, 0, 524271, 5, 0, 589807, 5, 0, 655343, 5, 0, 720879, 5, 0, 786415, 5, 0, 851951, 5, 0, 917487, 5, 0, 983023, 5, 0, 1048559, 0, 3, 1114095, 5, 0, 1179631, 5, 0, 1245167, 5, 0, 1310703, 5, 0, 1376239, 5, 0, 1441775, 5, 0, 1507311, 5, 0, 1572847, 5, 0, 1638383, 5, 0, 1703919, 5, 0, 1769455, 5, 0, 1834991, 5, 0, 1900527, 5, 0, 1966063, 5, 0, 2031599, 5, 0, 2097135, 5, 0, 2162671, 5, 0, 2228207, 5, 0, 2293743, 5, 0, 2359279, 5, 0, 2424815, 5, 0, 2490351, 5, 0, 2555887, 5, 0, 2621423, 5, 0, 2686959, 5, 0, 2752495, 5, 0, 2818031, 5, 0, 2883567, 5, 0, 2949103, 5, 0, 3014639, 5, 0, 3080175, 5, 0, -196624, 5, 0, -131088, 5, 0, -65552, 5, 0, -16, 5, 0, 65520, 5, 0, 131056, 5, 0, 196592, 5, 0, 262128, 5, 0, 327664, 5, 0, 393200, 5, 0, 458736, 5, 0, 524272, 5, 0, 589808, 5, 0, 655344, 5, 0, 720880, 5, 0, 786416, 5, 0, 851952, 5, 0, 917488, 5, 0, 983024, 5, 0, 1048560, 65536, 3, 1114096, 5, 0, 1179632, 5, 0, 1245168, 5, 0, 1310704, 5, 0, 1376240, 5, 0, 1441776, 5, 0, 1507312, 5, 0, 1572848, 5, 0, 1638384, 5, 0, 1703920, 5, 0, 1769456, 5, 0, 1834992, 5, 0, 1900528, 5, 0, 1966064, 5, 0, 2031600, 5, 0, 2097136, 5, 0, 2162672, 5, 0, 2228208, 5, 0, 2293744, 5, 0, 2359280, 5, 0, 2424816, 5, 0, 2490352, 5, 0, 2555888, 5, 0, 2621424, 5, 0, 2686960, 5, 0, 2752496, 5, 0, 2818032, 5, 0, 2883568, 5, 0, 2949104, 5, 0, 3014640, 5, 0, 3080176, 5, 0, -196623, 5, 0, -131087, 5, 0, -65551, 5, 0, -15, 5, 0, 65521, 5, 0, 131057, 5, 0, 196593, 5, 0, 262129, 0, 3, 327665, 5, 0, 393201, 5, 0, 458737, 5, 0, 524273, 5, 0, 589809, 0, 3, 655345, 5, 0, 720881, 5, 0, 786417, 0, 3, 851953, 5, 0, 917489, 5, 0, 983025, 5, 0, 1048561, 65536, 3, 1114097, 5, 0, 1179633, 0, 3, 1245169, 5, 0, 1310705, 5, 0, 1376241, 5, 0, 1441777, 5, 0, 1507313, 5, 0, 1572849, 5, 0, 1638385, 0, 3, 1703921, 5, 0, 1769457, 5, 0, 1834993, 5, 0, 1900529, 5, 0, 1966065, 5, 0, 2031601, 5, 0, 2097137, 5, 0, 2162673, 5, 0, 2228209, 5, 0, 2293745, 5, 0, 2359281, 5, 0, 2424817, 5, 0, 2490353, 5, 0, 2555889, 5, 0, 2621425, 5, 0, 2686961, 5, 0, 2752497, 5, 0, 2818033, 5, 0, 2883569, 5, 0, 2949105, 5, 0, 3014641, 5, 0, 3080177, 5, 0, -196622, 5, 0, -131086, 5, 0, -65550, 5, 0, -14, 5, 0, 65522, 5, 0, 131058, 5, 0, 196594, 5, 0, 262130, 65536, 3, 327666, 5, 0, 393202, 5, 0, 458738, 5, 0, 524274, 5, 0, 589810, 65536, 3, 655346, 5, 0, 720882, 5, 0, 786418, 65536, 3, 851954, 5, 0, 917490, 5, 0, 983026, 5, 0, 1048562, 65536, 3, 1114098, 5, 0, 1179634, 65536, 3, 1245170, 5, 0, 1310706, 5, 0, 1376242, 5, 0, 1441778, 5, 0, 1507314, 5, 0, 1572850, 5, 0, 1638386, 65536, 3, 1703922, 5, 0, 1769458, 5, 0, 1834994, 5, 0, 1900530, 5, 0, 1966066, 5, 0, 2031602, 5, 0, 2097138, 5, 0, 2162674, 5, 0, 2228210, 5, 0, 2293746, 5, 0, 2359282, 5, 0, 2424818, 5, 0, 2490354, 5, 0, 2555890, 5, 0, 2621426, 5, 0, 2686962, 5, 0, 2752498, 5, 0, 2818034, 5, 0, 2883570, 5, 0, 2949106, 5, 0, 3014642, 5, 0, 3080178, 5, 0, -196621, 5, 0, -131085, 5, 0, -65549, 5, 0, -13, 0, 3, 65523, 5, 0, 131059, 5, 0, 196595, 5, 0, 262131, 65536, 3, 327667, 5, 0, 393203, 5, 0, 458739, 5, 0, 524275, 5, 0, 589811, 65536, 3, 655347, 5, 0, 720883, 5, 0, 786419, 65536, 3, 851955, 5, 0, 917491, 0, 3, 983027, 5, 0, 1048563, 65536, 3, 1114099, 5, 0, 1179635, 65536, 3, 1245171, 5, 0, 1310707, 5, 0, 1376243, 5, 0, 1441779, 5, 0, 1507315, 5, 0, 1572851, 5, 0, 1638387, 65536, 3, 1703923, 5, 0, 1769459, 5, 0, 1834995, 5, 0, 1900531, 5, 0, 1966067, 5, 0, 2031603, 5, 0, 2097139, 5, 0, 2162675, 5, 0, 2228211, 5, 0, 2293747, 5, 0, 2359283, 5, 0, 2424819, 5, 0, 2490355, 5, 0, 2555891, 5, 0, 2621427, 5, 0, 2686963, 5, 0, 2752499, 5, 0, 2818035, 5, 0, 2883571, 5, 0, 2949107, 5, 0, 3014643, 5, 0, 3080179, 5, 0, -196620, 5, 0, -131084, 5, 0, -65548, 5, 0, -12, 65536, 3, 65524, 5, 0, 131060, 5, 0, 196596, 262144, 0, 262132, 458752, 4, 327668, 196608, 1, 393204, 196608, 2, 458740, 5, 0, 524276, 5, 0, 589812, 65536, 3, 655348, 5, 0, 720884, 5, 0, 786420, 65536, 3, 851956, 5, 0, 917492, 65536, 3, 983028, 5, 0, 1048564, 65536, 3, 1114100, 5, 0, 1179636, 65536, 3, 1245172, 5, 0, 1310708, 5, 0, 1376244, 5, 0, 1441780, 5, 0, 1507316, 5, 0, 1572852, 5, 0, 1638388, 65536, 3, 1703924, 5, 0, 1769460, 5, 0, 1834996, 5, 0, 1900532, 5, 0, 1966068, 5, 0, 2031604, 5, 0, 2097140, 5, 0, 2162676, 5, 0, 2228212, 5, 0, 2293748, 5, 0, 2359284, 0, 3, 2424820, 5, 0, 2490356, 5, 0, 2555892, 5, 0, 2621428, 5, 0, 2686964, 0, 3, 2752500, 5, 0, 2818036, 5, 0, 2883572, 5, 0, 2949108, 0, 3, 3014644, 5, 0, 3080180, 5, 0, -196619, 5, 0, -131083, 0, 3, -65547, 5, 0, -11, 524288, 0, 65525, 196608, 1, 131061, 196608, 1, 196597, 458752, 3, 262133, 5, 0, 327669, 5, 0, 393205, 5, 0, 458741, 5, 0, 524277, 5, 0, 589813, 65536, 3, 655349, 5, 0, 720885, 5, 0, 786421, 65536, 3, 851957, 5, 0, 917493, 65536, 3, 983029, 5, 0, 1048565, 65536, 3, 1114101, 5, 0, 1179637, 458752, 0, 1245173, 196608, 1, 1310709, 196608, 1, 1376245, 196608, 1, 1441781, 262144, 3, 1507317, 5, 0, 1572853, 5, 0, 1638389, 65536, 3, 1703925, 5, 0, 1769461, 5, 0, 1834997, 5, 0, 1900533, 5, 0, 1966069, 5, 0, 2031605, 5, 0, 2097141, 5, 0, 2162677, 5, 0, 2228213, 5, 0, 2293749, 5, 0, 2359285, 524288, 0, 2424821, 196608, 1, 2490357, 196608, 1, 2555893, 196608, 2, 2621429, 5, 0, 2686965, 65536, 3, 2752501, 5, 0, 2818037, 5, 0, 2883573, 5, 0, 2949109, 65536, 3, 3014645, 5, 0, 3080181, 5, 0, -196618, 5, 0, -131082, 65536, 3, -65546, 5, 0, -10, 65536, 3, 65526, 5, 0, 131062, 5, 0, 196598, 5, 0, 262134, 5, 0, 327670, 0, 3, 393206, 5, 0, 458742, 5, 0, 524278, 5, 0, 589814, 65536, 3, 655350, 5, 0, 720886, 5, 0, 786422, 65536, 3, 851958, 5, 0, 917494, 131072, 3, 983030, 5, 0, 1048566, 65536, 3, 1114102, 5, 0, 1179638, 5, 0, 1245174, 5, 0, 1310710, 5, 0, 1376246, 5, 0, 1441782, 65536, 3, 1507318, 5, 0, 1572854, 5, 0, 1638390, 65536, 3, 1703926, 5, 0, 1769462, 5, 0, 1834998, 5, 0, 1900534, 196608, 0, 1966070, 196608, 2, 2031606, 5, 0, 2097142, 5, 0, 2162678, 5, 0, 2228214, 5, 0, 2293750, 5, 0, 2359286, 65536, 3, 2424822, 5, 0, 2490358, 5, 0, 2555894, 5, 0, 2621430, 5, 0, 2686966, 65536, 3, 2752502, 5, 0, 2818038, 5, 0, 2883574, 5, 0, 2949110, 524288, 0, 3014646, 196608, 1, 3080182, 196608, 1, -196617, 5, 0, -131081, 65536, 3, -65545, 5, 0, -9, 65536, 3, 65527, 5, 0, 131063, 5, 0, 196599, 5, 0, 262135, 5, 0, 327671, 65536, 3, 393207, 5, 0, 458743, 5, 0, 524279, 5, 0, 589815, 458752, 0, 655351, 196608, 1, 720887, 196608, 1, 786423, 458752, 3, 851959, 5, 0, 917495, 5, 0, 983031, 5, 0, 1048567, 458752, 0, 1114103, 196608, 1, 1179639, 196608, 1, 1245175, 196608, 1, 1310711, 196608, 1, 1376247, 196608, 1, 1441783, 458752, 3, 1507319, 5, 0, 1572855, 5, 0, 1638391, 65536, 3, 1703927, 5, 0, 1769463, 5, 0, 1834999, 5, 0, 1900535, 5, 0, 1966071, 5, 0, 2031607, 196608, 0, 2097143, 196608, 1, 2162679, 196608, 1, 2228215, 196608, 1, 2293751, 196608, 1, 2359287, 458752, 3, 2424823, 5, 0, 2490359, 5, 0, 2555895, 5, 0, 2621431, 5, 0, 2686967, 65536, 3, 2752503, 5, 0, 2818039, 5, 0, 2883575, 5, 0, 2949111, 65536, 3, 3014647, 5, 0, 3080183, 5, 0, -196616, 5, 0, -131080, 65536, 3, -65544, 5, 0, -8, 65536, 3, 65528, 5, 0, 131064, 5, 0, 196600, 5, 0, 262136, 5, 0, 327672, 65536, 3, 393208, 5, 0, 458744, 5, 0, 524280, 5, 0, 589816, 5, 0, 655352, 5, 0, 720888, 5, 0, 786424, 5, 0, 851960, 5, 0, 917496, 5, 0, 983032, 5, 0, 1048568, 5, 0, 1114104, 5, 0, 1179640, 5, 0, 1245176, 5, 0, 1310712, 5, 0, 1376248, 5, 0, 1441784, 5, 0, 1507320, 5, 0, 1572856, 5, 0, 1638392, 65536, 3, 1703928, 5, 0, 1769464, 5, 0, 1835000, 5, 0, 1900536, 5, 0, 1966072, 5, 0, 2031608, 5, 0, 2097144, 5, 0, 2162680, 5, 0, 2228216, 5, 0, 2293752, 5, 0, 2359288, 5, 0, 2424824, 5, 0, 2490360, 5, 0, 2555896, 5, 0, 2621432, 5, 0, 2686968, 65536, 3, 2752504, 5, 0, 2818040, 5, 0, 2883576, 5, 0, 2949112, 65536, 3, 3014648, 5, 0, 3080184, 5, 0, 3145705, 5, 0, 3211241, 5, 0, 3276777, 5, 0, 3342313, 5, 0, 3407849, 5, 0, 3473385, 5, 0, 3538921, 5, 0, 3604457, 5, 0, 3669993, 5, 0, 3735529, 5, 0, 3145706, 5, 0, 3211242, 5, 0, 3276778, 5, 0, 3342314, 5, 0, 3407850, 5, 0, 3473386, 5, 0, 3538922, 5, 0, 3604458, 5, 0, 3669994, 5, 0, 3735530, 5, 0, 3145707, 5, 0, 3211243, 5, 0, 3276779, 5, 0, 3342315, 5, 0, 3407851, 5, 0, 3473387, 5, 0, 3538923, 5, 0, 3604459, 5, 0, 3669995, 5, 0, 3735531, 5, 0, 3145708, 5, 0, 3211244, 5, 0, 3276780, 5, 0, 3342316, 5, 0, 3407852, 5, 0, 3473388, 5, 0, 3538924, 5, 0, 3604460, 5, 0, 3669996, 5, 0, 3735532, 5, 0, 3145709, 5, 0, 3211245, 5, 0, 3276781, 5, 0, 3342317, 5, 0, 3407853, 5, 0, 3473389, 5, 0, 3538925, 5, 0, 3604461, 5, 0, 3669997, 5, 0, 3735533, 5, 0, 3145710, 5, 0, 3211246, 5, 0, 3276782, 5, 0, 3342318, 5, 0, 3407854, 5, 0, 3473390, 5, 0, 3538926, 5, 0, 3604462, 5, 0, 3669998, 5, 0, 3735534, 5, 0, 3145711, 5, 0, 3211247, 5, 0, 3276783, 5, 0, 3342319, 5, 0, 3407855, 5, 0, 3473391, 5, 0, 3538927, 5, 0, 3604463, 5, 0, 3669999, 5, 0, 3735535, 5, 0, 3145712, 5, 0, 3211248, 5, 0, 3276784, 5, 0, 3342320, 5, 0, 3407856, 5, 0, 3473392, 5, 0, 3538928, 5, 0, 3604464, 5, 0, 3670000, 5, 0, 3735536, 5, 0, 3145713, 5, 0, 3211249, 5, 0, 3276785, 5, 0, 3342321, 5, 0, 3407857, 5, 0, 3473393, 5, 0, 3538929, 5, 0, 3604465, 5, 0, 3670001, 5, 0, 3735537, 5, 0, 3145714, 5, 0, 3211250, 5, 0, 3276786, 5, 0, 3342322, 5, 0, 3407858, 5, 0, 3473394, 5, 0, 3538930, 5, 0, 3604466, 5, 0, 3670002, 5, 0, 3735538, 5, 0, 3145715, 5, 0, 3211251, 5, 0, 3276787, 5, 0, 3342323, 5, 0, 3407859, 5, 0, 3473395, 5, 0, 3538931, 5, 0, 3604467, 5, 0, 3670003, 5, 0, 3735539, 5, 0, 3145716, 5, 0, 3211252, 5, 0, 3276788, 5, 0, 3342324, 5, 0, 3407860, 5, 0, 3473396, 5, 0, 3538932, 5, 0, 3604468, 5, 0, 3670004, 5, 0, 3735540, 5, 0, 3145717, 5, 0, 3211253, 5, 0, 3276789, 5, 0, 3342325, 5, 0, 3407861, 5, 0, 3473397, 5, 0, 3538933, 5, 0, 3604469, 5, 0, 3670005, 5, 0, 3735541, 5, 0, 3145718, 196608, 1, 3211254, 196608, 1, 3276790, 262144, 3, 3342326, 5, 0, 3407862, 5, 0, 3473398, 5, 0, 3538934, 5, 0, 3604470, 5, 0, 3670006, 5, 0, 3735542, 5, 0, 3145719, 5, 0, 3211255, 5, 0, 3276791, 65536, 3, 3342327, 5, 0, 3407863, 5, 0, 3473399, 5, 0, 3538935, 5, 0, 3604471, 5, 0, 3670007, 5, 0, 3735543, 5, 0, 3145720, 5, 0, 3211256, 5, 0, 3276792, 65536, 3, 3342328, 5, 0, 3407864, 5, 0, 3473400, 5, 0, 3538936, 5, 0, 3604472, 5, 0, 3670008, 5, 0, 3735544, 5, 0, 3145721, 5, 0, 3211257, 5, 0, 3276793, 65536, 3, 3342329, 5, 0, 3407865, 5, 0, 3473401, 5, 0, 3538937, 5, 0, 3604473, 5, 0, 3670009, 5, 0, 3735545, 5, 0, 3145722, 5, 0, 3211258, 5, 0, 3276794, 65536, 3, 3342330, 5, 0, 3407866, 5, 0, 3473402, 5, 0, 3538938, 5, 0, 3604474, 5, 0, 3670010, 5, 0, 3735546, 5, 0, 3145723, 5, 0, 3211259, 5, 0, 3276795, 65536, 3, 3342331, 5, 0, 3407867, 5, 0, 3473403, 5, 0, 3538939, 5, 0, 3604475, 5, 0, 3670011, 5, 0, 3735547, 5, 0, 3145724, 196608, 1, 3211260, 196608, 1, 3276796, 458752, 4, 3342332, 196608, 2, 3407868, 5, 0, 3473404, 5, 0, 3538940, 5, 0, 3604476, 5, 0, 3670012, 5, 0, 3735548, 5, 0, 3145725, 5, 0, 3211261, 5, 0, 3276797, 5, 0, 3342333, 5, 0, 3407869, 5, 0, 3473405, 5, 0, 3538941, 5, 0, 3604477, 5, 0, 3670013, 5, 0, 3735549, 5, 0, 3145726, 5, 0, 3211262, 5, 0, 3276798, 5, 0, 3342334, 5, 0, 3407870, 5, 0, 3473406, 5, 0, 3538942, 5, 0, 3604478, 5, 0, 3670014, 5, 0, 3735550, 5, 0, 3145727, 196608, 1, 3211263, 196608, 1, 3276799, 196608, 1, 3342335, 196608, 1, 3407871, 196608, 1, 3473407, 196608, 2, 3538943, 5, 0, 3604479, 5, 0, 3670015, 5, 0, 3735551, 5, 0, 3080192, 5, 0, 3145728, 5, 0, 3211264, 5, 0, 3276800, 5, 0, 3342336, 5, 0, 3407872, 5, 0, 3473408, 5, 0, 3538944, 5, 0, 3604480, 5, 0, 3670016, 5, 0, 3080193, 5, 0, 3145729, 5, 0, 3211265, 5, 0, 3276801, 5, 0, 3342337, 5, 0, 3407873, 0, 3, 3473409, 5, 0, 3538945, 5, 0, 3604481, 5, 0, 3670017, 5, 0, 3080194, 5, 0, 3145730, 5, 0, 3211266, 0, 3, 3276802, 5, 0, 3342338, 5, 0, 3407874, 65536, 3, 3473410, 5, 0, 3538946, 5, 0, 3604482, 5, 0, 3670018, 5, 0, 3080195, 5, 0, 3145731, 5, 0, 3211267, 65536, 3, 3276803, 5, 0, 3342339, 5, 0, 3407875, 65536, 3, 3473411, 5, 0, 3538947, 5, 0, 3604483, 5, 0, 3670019, 5, 0, 3080196, 5, 0, 3145732, 5, 0, 3211268, 65536, 3, 3276804, 5, 0, 3342340, 5, 0, 3407876, 65536, 3, 3473412, 5, 0, 3538948, 5, 0, 3604484, 5, 0, 3670020, 5, 0, 3080197, 5, 0, 3145733, 5, 0, 3211269, 65536, 3, 3276805, 5, 0, 3342341, 5, 0, 3407877, 65536, 3, 3473413, 5, 0, 3538949, 5, 0, 3604485, 5, 0, 3670021, 5, 0, 3080198, 5, 0, 3145734, 5, 0, 3211270, 65536, 3, 3276806, 5, 0, 3342342, 5, 0, 3407878, 131072, 3, 3473414, 5, 0, 3538950, 5, 0, 3604486, 5, 0, 3670022, 5, 0, 3080199, 5, 0, 3145735, 5, 0, 3211271, 65536, 3, 3276807, 5, 0, 3342343, 5, 0, 3407879, 5, 0, 3473415, 5, 0, 3538951, 5, 0, 3604487, 5, 0, 3670023, 5, 0, 3080200, 5, 0, 3145736, 5, 0, 3211272, 65536, 3, 3276808, 5, 0, 3342344, 5, 0, 3407880, 5, 0, 3473416, 5, 0, 3538952, 5, 0, 3604488, 5, 0, 3670024, 5, 0, 3080201, 196608, 1, 3145737, 196608, 1, 3211273, 458752, 4, 3276809, 196608, 1, 3342345, 196608, 1, 3407881, 196608, 2, 3473417, 5, 0, 3538953, 5, 0, 3604489, 5, 0, 3670025, 5, 0, 3080202, 5, 0, 3145738, 5, 0, 3211274, 5, 0, 3276810, 5, 0, 3342346, 5, 0, 3407882, 5, 0, 3473418, 5, 0, 3538954, 5, 0, 3604490, 5, 0, 3670026, 5, 0, 3080203, 5, 0, 3145739, 5, 0, 3211275, 5, 0, 3276811, 5, 0, 3342347, 5, 0, 3407883, 5, 0, 3473419, 5, 0, 3538955, 5, 0, 3604491, 5, 0, 3670027, 5, 0, 3080204, 5, 0, 3145740, 5, 0, 3211276, 5, 0, 3276812, 5, 0, 3342348, 0, 3, 3407884, 5, 0, 3473420, 5, 0, 3538956, 5, 0, 3604492, 5, 0, 3670028, 5, 0, 3080205, 5, 0, 3145741, 5, 0, 3211277, 5, 0, 3276813, 5, 0, 3342349, 65536, 3, 3407885, 5, 0, 3473421, 5, 0, 3538957, 5, 0, 3604493, 5, 0, 3670029, 5, 0, 3080206, 5, 0, 3145742, 5, 0, 3211278, 5, 0, 3276814, 5, 0, 3342350, 65536, 3, 3407886, 5, 0, 3473422, 5, 0, 3538958, 5, 0, 3604494, 5, 0, 3670030, 5, 0, 3080207, 5, 0, 3145743, 5, 0, 3211279, 0, 3, 3276815, 5, 0, 3342351, 65536, 3, 3407887, 5, 0, 3473423, 5, 0, 3538959, 5, 0, 3604495, 5, 0, 3670031, 5, 0, 3080208, 5, 0, 3145744, 5, 0, 3211280, 65536, 3, 3276816, 5, 0, 3342352, 65536, 3, 3407888, 5, 0, 3473424, 5, 0, 3538960, 5, 0, 3604496, 5, 0, 3670032, 5, 0, 3080209, 196608, 1, 3145745, 196608, 1, 3211281, 524288, 3, 3276817, 5, 0, 3342353, 65536, 3, 3407889, 5, 0, 3473425, 5, 0, 3538961, 5, 0, 3604497, 5, 0, 3670033, 5, 0, 3080210, 5, 0, 3145746, 5, 0, 3211282, 65536, 3, 3276818, 5, 0, 3342354, 65536, 3, 3407890, 5, 0, 3473426, 5, 0, 3538962, 5, 0, 3604498, 5, 0, 3670034, 5, 0, 3080211, 5, 0, 3145747, 5, 0, 3211283, 65536, 3, 3276819, 5, 0, 3342355, 65536, 3, 3407891, 5, 0, 3473427, 5, 0, 3538963, 5, 0, 3604499, 5, 0, 3670035, 5, 0, 3080212, 5, 0, 3145748, 5, 0, 3211284, 65536, 3, 3276820, 5, 0, 3342356, 65536, 3, 3407892, 5, 0, 3473428, 5, 0, 3538964, 5, 0, 3604500, 5, 0, 3670036, 5, 0, 3080213, 5, 0, 3145749, 5, 0, 3211285, 131072, 3, 3276821, 5, 0, 3342357, 65536, 3, 3407893, 5, 0, 3473429, 5, 0, 3538965, 5, 0, 3604501, 5, 0, 3670037, 5, 0, 3080214, 5, 0, 3145750, 5, 0, 3211286, 5, 0, 3276822, 5, 0, 3342358, 65536, 3, 3407894, 5, 0, 3473430, 5, 0, 3538966, 5, 0, 3604502, 5, 0, 3670038, 5, 0, 3080215, 5, 0, 3145751, 5, 0, 3211287, 5, 0, 3276823, 5, 0, 3342359, 131072, 3, 3407895, 5, 0, 3473431, 5, 0, 3538967, 5, 0, 3604503, 5, 0, 3670039, 5, 0, 3080216, 5, 0, 3145752, 5, 0, 3211288, 5, 0, 3276824, 5, 0, 3342360, 5, 0, 3407896, 5, 0, 3473432, 5, 0, 3538968, 5, 0, 3604504, 5, 0, 3670040, 5, 0, 3080217, 196608, 1, 3145753, 196608, 1, 3211289, 196608, 1, 3276825, 196608, 2, 3342361, 5, 0, 3407897, 5, 0, 3473433, 5, 0, 3538969, 5, 0, 3604505, 5, 0, 3670041, 5, 0, 3080218, 5, 0, 3145754, 5, 0, 3211290, 5, 0, 3276826, 5, 0, 3342362, 5, 0, 3407898, 5, 0, 3473434, 5, 0, 3538970, 5, 0, 3604506, 5, 0, 3670042, 5, 0, 3080219, 5, 0, 3145755, 5, 0, 3211291, 5, 0, 3276827, 5, 0, 3342363, 5, 0, 3407899, 196608, 0, 3473435, 262144, 3, 3538971, 5, 0, 3604507, 5, 0, 3670043, 5, 0, 3080220, 5, 0, 3145756, 5, 0, 3211292, 5, 0, 3276828, 196608, 0, 3342364, 196608, 2, 3407900, 5, 0, 3473436, 65536, 3, 3538972, 5, 0, 3604508, 5, 0, 3670044, 5, 0, 3080221, 5, 0, 3145757, 5, 0, 3211293, 5, 0, 3276829, 5, 0, 3342365, 5, 0, 3407901, 5, 0, 3473437, 65536, 3, 3538973, 5, 0, 3604509, 5, 0, 3670045, 5, 0, 3080222, 5, 0, 3145758, 5, 0, 3211294, 5, 0, 3276830, 0, 3, 3342366, 5, 0, 3407902, 5, 0, 3473438, 65536, 3, 3538974, 5, 0, 3604510, 5, 0, 3670046, 5, 0, 3080223, 5, 0, 3145759, 5, 0, 3211295, 5, 0, 3276831, 65536, 3, 3342367, 5, 0, 3407903, 5, 0, 3473439, 131072, 3, 3538975, 5, 0, 3604511, 5, 0, 3670047, 5, 0, 3080224, 5, 0, 3145760, 5, 0, 3211296, 5, 0, 3276832, 65536, 3, 3342368, 5, 0, 3407904, 5, 0, 3473440, 5, 0, 3538976, 5, 0, 3604512, 5, 0, 3670048, 5, 0, 3080225, 5, 0, 3145761, 5, 0, 3211297, 5, 0, 3276833, 65536, 3, 3342369, 5, 0, 3407905, 5, 0, 3473441, 5, 0, 3538977, 5, 0, 3604513, 5, 0, 3670049, 5, 0, 3080226, 5, 0, 3145762, 5, 0, 3211298, 5, 0, 3276834, 65536, 3, 3342370, 5, 0, 3407906, 5, 0, 3473442, 5, 0, 3538978, 5, 0, 3604514, 5, 0, 3670050, 5, 0, 3080227, 5, 0, 3145763, 5, 0, 3211299, 5, 0, 3276835, 65536, 3, 3342371, 5, 0, 3407907, 5, 0, 3473443, 5, 0, 3538979, 5, 0, 3604515, 5, 0, 3670051, 5, 0, 3080228, 5, 0, 3145764, 5, 0, 3211300, 5, 0, 3276836, 65536, 3, 3342372, 5, 0, 3407908, 5, 0, 3473444, 5, 0, 3538980, 5, 0, 3604516, 5, 0, 3670052, 5, 0, 3145765, 5, 0, 3211301, 196608, 0, 3276837, 458752, 4, 3342373, 196608, 1, 3407909, 262144, 3, 3473445, 5, 0, 3538981, 5, 0, 3604517, 5, 0, 3670053, 5, 0, 3145766, 196608, 2, 3211302, 5, 0, 3276838, 5, 0, 3342374, 5, 0, 3407910, 65536, 3, 3473446, 5, 0, 3538982, 5, 0, 3604518, 5, 0, 3670054, 5, 0, 3145767, 5, 0, 3211303, 5, 0, 3276839, 5, 0, 3342375, 5, 0, 3407911, 65536, 3, 3473447, 5, 0, 3538983, 5, 0, 3604519, 5, 0, 3670055, 5, 0, 3145768, 5, 0, 3211304, 5, 0, 3276840, 5, 0, 3342376, 5, 0, 3407912, 65536, 3, 3473448, 5, 0, 3538984, 5, 0, 3604520, 5, 0, 3670056, 5, 0, 3145769, 5, 0, 3211305, 0, 3, 3276841, 5, 0, 3342377, 5, 0, 3407913, 65536, 3, 3473449, 5, 0, 3538985, 5, 0, 3604521, 5, 0, 3670057, 5, 0, 3145770, 5, 0, 3211306, 131072, 3, 3276842, 5, 0, 3342378, 5, 0, 3407914, 131072, 3, 3473450, 5, 0, 3538986, 5, 0, 3604522, 5, 0, 3670058, 5, 0, 3080235, 5, 0, 3145771, 5, 0, 3211307, 5, 0, 3276843, 5, 0, 3342379, 5, 0, 3407915, 5, 0, 3473451, 5, 0, 3538987, 5, 0, 3604523, 5, 0, 3670059, 5, 0, 3080236, 5, 0, 3145772, 5, 0, 3211308, 5, 0, 3276844, 5, 0, 3342380, 5, 0, 3407916, 5, 0, 3473452, 5, 0, 3538988, 5, 0, 3604524, 5, 0, 3670060, 5, 0, 3080237, 5, 0, 3145773, 5, 0, 3211309, 0, 0, 3276845, 0, 2, 3342381, 5, 0, 3407917, 5, 0, 3473453, 5, 0, 3538989, 5, 0, 3604525, 5, 0, 3670061, 5, 0, 3080238, 196608, 1, 3145774, 196608, 1, 3211310, 458752, 2, 3276846, 327680, 3, 3342382, 5, 0, 3407918, 5, 0, 3473454, 5, 0, 3538990, 5, 0, 3604526, 5, 0, 3670062, 5, 0, 3080239, 5, 0, 3145775, 5, 0, 3211311, 5, 0, 3276847, 65536, 3, 3342383, 5, 0, 3407919, 5, 0, 3473455, 5, 0, 3538991, 5, 0, 3604527, 5, 0, 3670063, 5, 0, 3080240, 5, 0, 3145776, 5, 0, 3211312, 5, 0, 3276848, 65536, 3, 3342384, 5, 0, 3407920, 5, 0, 3473456, 5, 0, 3538992, 5, 0, 3604528, 5, 0, 3670064, 5, 0, 3080241, 5, 0, 3145777, 5, 0, 3211313, 5, 0, 3276849, 65536, 3, 3342385, 5, 0, 3407921, 5, 0, 3473457, 5, 0, 3538993, 5, 0, 3604529, 5, 0, 3670065, 5, 0, 3080242, 5, 0, 3145778, 5, 0, 3211314, 5, 0, 3276850, 65536, 3, 3342386, 5, 0, 3407922, 5, 0, 3473458, 5, 0, 3538994, 5, 0, 3604530, 5, 0, 3670066, 5, 0, 3080243, 196608, 1, 3145779, 196608, 1, 3211315, 196608, 1, 3276851, 458752, 3, 3342387, 5, 0, 3407923, 5, 0, 3473459, 5, 0, 3538995, 5, 0, 3604531, 5, 0, 3670067, 5, 0, 3080244, 5, 0, 3145780, 5, 0, 3211316, 5, 0, 3276852, 5, 0, 3342388, 5, 0, 3407924, 5, 0, 3473460, 5, 0, 3538996, 5, 0, 3604532, 5, 0, 3670068, 5, 0, 3080245, 5, 0, 3145781, 5, 0, 3211317, 5, 0, 3276853, 5, 0, 3342389, 5, 0, 3407925, 5, 0, 3473461, 5, 0, 3538997, 5, 0, 3604533, 5, 0, 3670069, 5, 0, 3080246, 5, 0, 3145782, 5, 0, 3211318, 5, 0, 3276854, 5, 0, 3342390, 5, 0, 3407926, 5, 0, 3473462, 5, 0, 3538998, 5, 0, 3604534, 5, 0, 3670070, 5, 0, 3080247, 5, 0, 3145783, 5, 0, 3211319, 5, 0, 3276855, 5, 0, 3342391, 5, 0, 3407927, 5, 0, 3473463, 5, 0, 3538999, 5, 0, 3604535, 5, 0, 3670071, 5, 0, 3080248, 5, 0, 3145784, 5, 0, 3211320, 5, 0, 3276856, 5, 0, 3342392, 5, 0, 3407928, 5, 0, 3473464, 5, 0, 3539000, 5, 0, 3604536, 5, 0, 3670072, 5, 0, 3080249, 5, 0, 3145785, 5, 0, 3211321, 5, 0, 3276857, 5, 0, 3342393, 5, 0, 3407929, 5, 0, 3473465, 5, 0, 3539001, 5, 0, 3604537, 5, 0, 3670073, 5, 0, 3080250, 5, 0, 3145786, 5, 0, 3211322, 5, 0, 3276858, 5, 0, 3342394, 5, 0, 3407930, 5, 0, 3473466, 5, 0, 3539002, 5, 0, 3604538, 5, 0, 3670074, 5, 0, 3080251, 5, 0, 3145787, 5, 0, 3211323, 5, 0, 3276859, 5, 0, 3342395, 5, 0, 3407931, 5, 0, 3473467, 5, 0, 3539003, 5, 0, 3604539, 5, 0, 3670075, 5, 0, 3080252, 5, 0, 3145788, 5, 0, 3211324, 5, 0, 3276860, 5, 0, 3342396, 5, 0, 3407932, 5, 0, 3473468, 5, 0, 3539004, 5, 0, 3604540, 5, 0, 3670076, 5, 0, -589775, 65536, 3, -524239, 5, 0, -458703, 65536, 3, -393167, 5, 0, -327631, 5, 0, -262095, 5, 0, -196559, 5, 0, -131023, 5, 0, -65487, 5, 0, 49, 5, 0, 65585, 5, 0, 131121, 5, 0, 196657, 5, 0, 262193, 5, 0, 327729, 5, 0, 393265, 5, 0, 458801, 5, 0, 524337, 5, 0, 589873, 5, 0, 655409, 5, 0, 720945, 5, 0, 786481, 5, 0, 852017, 5, 0, 917553, 5, 0, 983089, 65536, 3, 1048625, 5, 0, 1114161, 5, 0, 1179697, 65536, 3, 1245233, 5, 0, 1310769, 5, 0, 1376305, 5, 0, 1441841, 5, 0, 1507377, 5, 0, 1572913, 5, 0, 1638449, 5, 0, 1703985, 5, 0, 1769521, 5, 0, 1835057, 5, 0, 1900593, 5, 0, 1966129, 5, 0, 2031665, 5, 0, 2097201, 5, 0, 2162737, 5, 0, 2228273, 5, 0, 2293809, 5, 0, 2359345, 5, 0, 2424881, 5, 0, 2490417, 5, 0, 2555953, 5, 0, 2621489, 5, 0, 2687025, 5, 0, 2752561, 5, 0, 2818097, 5, 0, 2883633, 5, 0, 2949169, 5, 0, 3014705, 5, 0, -589774, 65536, 3, -524238, 5, 0, -458702, 65536, 3, -393166, 5, 0, -327630, 5, 0, -262094, 5, 0, -196558, 5, 0, -131022, 5, 0, -65486, 5, 0, 50, 5, 0, 65586, 5, 0, 131122, 5, 0, 196658, 5, 0, 262194, 5, 0, 327730, 5, 0, 393266, 5, 0, 458802, 5, 0, 524338, 5, 0, 589874, 5, 0, 655410, 5, 0, 720946, 5, 0, 786482, 5, 0, 852018, 5, 0, 917554, 5, 0, 983090, 65536, 3, 1048626, 5, 0, 1114162, 5, 0, 1179698, 65536, 3, 1245234, 5, 0, 1310770, 196608, 3, 1376306, 5, 0, 1441842, 5, 0, 1507378, 5, 0, 1572914, 196608, 0, 1638450, 196608, 1, 1703986, 196608, 1, 1769522, 196608, 1, 1835058, 196608, 1, 1900594, 196608, 2, 1966130, 5, 0, 2031666, 5, 0, 2097202, 5, 0, 2162738, 5, 0, 2228274, 0, 3, 2293810, 5, 0, 2359346, 262144, 0, 2424882, 196608, 1, 2490418, 196608, 1, 2555954, 196608, 2, 2621490, 5, 0, 2687026, 5, 0, 2752562, 0, 3, 2818098, 5, 0, 2883634, 0, 3, 2949170, 5, 0, 3014706, 5, 0, -589773, 458752, 3, -524237, 5, 0, -458701, 524288, 0, -393165, 196608, 1, -327629, 196608, 1, -262093, 196608, 1, -196557, 196608, 1, -131021, 196608, 1, -65485, 196608, 2, 51, 5, 0, 65587, 5, 0, 131123, 262144, 0, 196659, 196608, 1, 262195, 196608, 1, 327731, 196608, 2, 393267, 5, 0, 458803, 5, 0, 524339, 0, 3, 589875, 5, 0, 655411, 5, 0, 720947, 5, 0, 786483, 5, 0, 852019, 5, 0, 917555, 5, 0, 983091, 131072, 3, 1048627, 5, 0, 1114163, 5, 0, 1179699, 65536, 3, 1245235, 5, 0, 1310771, 5, 0, 1376307, 5, 0, 1441843, 5, 0, 1507379, 5, 0, 1572915, 5, 0, 1638451, 5, 0, 1703987, 5, 0, 1769523, 5, 0, 1835059, 5, 0, 1900595, 5, 0, 1966131, 5, 0, 2031667, 5, 0, 2097203, 5, 0, 2162739, 5, 0, 2228275, 65536, 3, 2293811, 5, 0, 2359347, 131072, 3, 2424883, 5, 0, 2490419, 5, 0, 2555955, 5, 0, 2621491, 5, 0, 2687027, 5, 0, 2752563, 65536, 3, 2818099, 5, 0, 2883635, 524288, 0, 2949171, 196608, 1, 3014707, 196608, 1, -589772, 5, 0, -524236, 5, 0, -458700, 65536, 3, -393164, 5, 0, -327628, 5, 0, -262092, 5, 0, -196556, 5, 0, -131020, 5, 0, -65484, 5, 0, 52, 5, 0, 65588, 5, 0, 131124, 65536, 3, 196660, 5, 0, 262196, 5, 0, 327732, 5, 0, 393268, 5, 0, 458804, 5, 0, 524340, 65536, 3, 589876, 5, 0, 655412, 196608, 0, 720948, 196608, 1, 786484, 196608, 1, 852020, 196608, 2, 917556, 5, 0, 983092, 5, 0, 1048628, 5, 0, 1114164, 5, 0, 1179700, 65536, 3, 1245236, 5, 0, 1310772, 5, 0, 1376308, 5, 0, 1441844, 196608, 0, 1507380, 196608, 1, 1572916, 196608, 1, 1638452, 196608, 1, 1703988, 196608, 1, 1769524, 196608, 1, 1835060, 196608, 2, 1900596, 5, 0, 1966132, 5, 0, 2031668, 5, 0, 2097204, 5, 0, 2162740, 5, 0, 2228276, 65536, 3, 2293812, 5, 0, 2359348, 5, 0, 2424884, 5, 0, 2490420, 5, 0, 2555956, 0, 3, 2621492, 5, 0, 2687028, 5, 0, 2752564, 65536, 3, 2818100, 5, 0, 2883636, 65536, 3, 2949172, 5, 0, 3014708, 5, 0, -589771, 196608, 1, -524235, 196608, 1, -458699, 524288, 3, -393163, 5, 0, -327627, 5, 0, -262091, 5, 0, -196555, 5, 0, -131019, 5, 0, -65483, 5, 0, 53, 5, 0, 65589, 5, 0, 131125, 65536, 3, 196661, 5, 0, 262197, 5, 0, 327733, 5, 0, 393269, 5, 0, 458805, 5, 0, 524341, 65536, 3, 589877, 5, 0, 655413, 5, 0, 720949, 5, 0, 786485, 5, 0, 852021, 5, 0, 917557, 5, 0, 983093, 5, 0, 1048629, 5, 0, 1114165, 5, 0, 1179701, 65536, 3, 1245237, 5, 0, 1310773, 5, 0, 1376309, 5, 0, 1441845, 5, 0, 1507381, 5, 0, 1572917, 5, 0, 1638453, 5, 0, 1703989, 5, 0, 1769525, 5, 0, 1835061, 5, 0, 1900597, 0, 3, 1966133, 5, 0, 2031669, 5, 0, 2097205, 5, 0, 2162741, 5, 0, 2228277, 65536, 3, 2293813, 5, 0, 2359349, 5, 0, 2424885, 0, 3, 2490421, 5, 0, 2555957, 65536, 3, 2621493, 5, 0, 2687029, 5, 0, 2752565, 131072, 3, 2818101, 5, 0, 2883637, 65536, 3, 2949173, 5, 0, 3014709, 5, 0, -589770, 5, 0, -524234, 5, 0, -458698, 131072, 3, -393162, 5, 0, -327626, 5, 0, -262090, 5, 0, -196554, 5, 0, -131018, 5, 0, -65482, 5, 0, 54, 5, 0, 65590, 5, 0, 131126, 65536, 3, 196662, 5, 0, 262198, 196608, 0, 327734, 196608, 1, 393270, 196608, 1, 458806, 196608, 1, 524342, 458752, 3, 589878, 5, 0, 655414, 5, 0, 720950, 0, 3, 786486, 5, 0, 852022, 0, 3, 917558, 5, 0, 983094, 5, 0, 1048630, 5, 0, 1114166, 5, 0, 1179702, 65536, 3, 1245238, 5, 0, 1310774, 5, 0, 1376310, 5, 0, 1441846, 5, 0, 1507382, 5, 0, 1572918, 5, 0, 1638454, 5, 0, 1703990, 5, 0, 1769526, 5, 0, 1835062, 5, 0, 1900598, 65536, 3, 1966134, 5, 0, 2031670, 5, 0, 2097206, 0, 3, 2162742, 5, 0, 2228278, 131072, 3, 2293814, 5, 0, 2359350, 5, 0, 2424886, 65536, 3, 2490422, 5, 0, 2555958, 65536, 3, 2621494, 5, 0, 2687030, 0, 3, 2752566, 5, 0, 2818102, 5, 0, 2883638, 131072, 3, 2949174, 5, 0, 3014710, 5, 0, -589769, 5, 0, -524233, 5, 0, -458697, 5, 0, -393161, 5, 0, -327625, 5, 0, -262089, 5, 0, -196553, 5, 0, -131017, 5, 0, -65481, 5, 0, 55, 5, 0, 65591, 5, 0, 131127, 65536, 3, 196663, 5, 0, 262199, 5, 0, 327735, 5, 0, 393271, 5, 0, 458807, 5, 0, 524343, 5, 0, 589879, 5, 0, 655415, 5, 0, 720951, 131072, 3, 786487, 5, 0, 852023, 65536, 3, 917559, 5, 0, 983095, 5, 0, 1048631, 5, 0, 1114167, 5, 0, 1179703, 458752, 0, 1245239, 196608, 1, 1310775, 196608, 1, 1376311, 196608, 1, 1441847, 196608, 1, 1507383, 196608, 1, 1572919, 196608, 1, 1638455, 196608, 1, 1703991, 196608, 2, 1769527, 5, 0, 1835063, 5, 0, 1900599, 65536, 3, 1966135, 5, 0, 2031671, 5, 0, 2097207, 65536, 3, 2162743, 5, 0, 2228279, 5, 0, 2293815, 5, 0, 2359351, 5, 0, 2424887, 65536, 3, 2490423, 5, 0, 2555959, 65536, 3, 2621495, 5, 0, 2687031, 65536, 3, 2752567, 5, 0, 2818103, 5, 0, 2883639, 5, 0, 2949175, 5, 0, 3014711, 5, 0, -589768, 5, 0, -524232, 5, 0, -458696, 5, 0, -393160, 5, 0, -327624, 5, 0, -262088, 5, 0, -196552, 5, 0, -131016, 5, 0, -65480, 5, 0, 56, 5, 0, 65592, 5, 0, 131128, 65536, 3, 196664, 5, 0, 262200, 5, 0, 327736, 0, 3, 393272, 5, 0, 458808, 5, 0, 524344, 0, 3, 589880, 5, 0, 655416, 5, 0, 720952, 5, 0, 786488, 5, 0, 852024, 65536, 3, 917560, 5, 0, 983096, 5, 0, 1048632, 5, 0, 1114168, 5, 0, 1179704, 5, 0, 1245240, 5, 0, 1310776, 5, 0, 1376312, 5, 0, 1441848, 5, 0, 1507384, 5, 0, 1572920, 5, 0, 1638456, 5, 0, 1703992, 5, 0, 1769528, 5, 0, 1835064, 5, 0, 1900600, 65536, 3, 1966136, 5, 0, 2031672, 5, 0, 2097208, 458752, 0, 2162744, 196608, 1, 2228280, 196608, 1, 2293816, 196608, 1, 2359352, 196608, 1, 2424888, 458752, 3, 2490424, 5, 0, 2555960, 131072, 3, 2621496, 5, 0, 2687032, 131072, 3, 2752568, 5, 0, 2818104, 5, 0, 2883640, 5, 0, 2949176, 5, 0, 3014712, 5, 0, -589767, 5, 0, -524231, 5, 0, -458695, 5, 0, -393159, 5, 0, -327623, 5, 0, -262087, 5, 0, -196551, 5, 0, -131015, 5, 0, -65479, 5, 0, 57, 5, 0, 65593, 5, 0, 131129, 458752, 0, 196665, 196608, 1, 262201, 196608, 1, 327737, 458752, 3, 393273, 5, 0, 458809, 5, 0, 524345, 458752, 0, 589881, 196608, 1, 655417, 196608, 1, 720953, 196608, 1, 786489, 196608, 1, 852025, 458752, 3, 917561, 5, 0, 983097, 5, 0, 1048633, 5, 0, 1114169, 5, 0, 1179705, 5, 0, 1245241, 5, 0, 1310777, 5, 0, 1376313, 5, 0, 1441849, 5, 0, 1507385, 5, 0, 1572921, 5, 0, 1638457, 5, 0, 1703993, 5, 0, 1769529, 5, 0, 1900601, 65536, 3, 1966137, 5, 0, 2031673, 5, 0, 2097209, 5, 0, 2162745, 5, 0, 2228281, 5, 0, 2293817, 5, 0, 2359353, 5, 0, 2424889, 5, 0, 2490425, 5, 0, 2555961, 5, 0, 2621497, 5, 0, 2687033, 5, 0, 2752569, 5, 0, 2818105, 5, 0, 2883641, 5, 0, 2949177, 5, 0, 3014713, 5, 0, -589766, 5, 0, -524230, 5, 0, -458694, 5, 0, -393158, 5, 0, -327622, 5, 0, -262086, 5, 0, -196550, 5, 0, -131014, 5, 0, -65478, 5, 0, 58, 5, 0, 65594, 5, 0, 131130, 5, 0, 196666, 5, 0, 262202, 5, 0, 327738, 5, 0, 393274, 5, 0, 458810, 5, 0, 524346, 5, 0, 589882, 5, 0, 655418, 5, 0, 720954, 5, 0, 786490, 5, 0, 852026, 5, 0, 917562, 5, 0, 983098, 5, 0, 1048634, 5, 0, 1114170, 5, 0, 1179706, 5, 0, 1245242, 5, 0, 1310778, 196608, 0, 1376314, 196608, 1, 1441850, 196608, 1, 1507386, 196608, 1, 1572922, 196608, 1, 1638458, 196608, 1, 1703994, 196608, 1, 1769530, 196608, 1, 1835066, 196608, 1, 1900602, 458752, 3, 1966138, 5, 0, 2031674, 5, 0, 2097210, 5, 0, 2162746, 5, 0, 2228282, 5, 0, 2293818, 5, 0, 2359354, 5, 0, 2424890, 5, 0, 2490426, 5, 0, 2555962, 5, 0, 2621498, 5, 0, 2687034, 5, 0, 2752570, 5, 0, 2818106, 5, 0, 2883642, 5, 0, 2949178, 5, 0, 3014714, 5, 0, -589765, 5, 0, -524229, 5, 0, -458693, 5, 0, -393157, 5, 0, -327621, 5, 0, -262085, 5, 0, -196549, 5, 0, -131013, 5, 0, -65477, 5, 0, 59, 5, 0, 65595, 5, 0, 131131, 5, 0, 196667, 5, 0, 262203, 5, 0, 327739, 5, 0, 393275, 5, 0, 458811, 5, 0, 524347, 5, 0, 589883, 5, 0, 655419, 5, 0, 720955, 5, 0, 786491, 5, 0, 852027, 5, 0, 917563, 5, 0, 983099, 5, 0, 1048635, 5, 0, 1114171, 5, 0, 1179707, 5, 0, 1245243, 5, 0, 1310779, 5, 0, 1376315, 5, 0, 1441851, 5, 0, 1507387, 5, 0, 1572923, 5, 0, 1638459, 5, 0, 1703995, 5, 0, 1769531, 5, 0, 1835067, 5, 0, 1900603, 5, 0, 1966139, 5, 0, 2031675, 5, 0, 2097211, 5, 0, 2162747, 5, 0, 2228283, 5, 0, 2293819, 5, 0, 2359355, 5, 0, 2424891, 5, 0, 2490427, 5, 0, 2555963, 5, 0, 2621499, 5, 0, 2687035, 5, 0, 2752571, 5, 0, 2818107, 5, 0, 2883643, 5, 0, 2949179, 5, 0, 3014715, 5, 0, -589764, 5, 0, -524228, 5, 0, -458692, 5, 0, -393156, 5, 0, -327620, 5, 0, -262084, 5, 0, -196548, 5, 0, -131012, 5, 0, -65476, 5, 0, 60, 5, 0, 65596, 5, 0, 131132, 5, 0, 196668, 5, 0, 262204, 5, 0, 327740, 5, 0, 393276, 5, 0, 458812, 5, 0, 524348, 5, 0, 589884, 5, 0, 655420, 5, 0, 720956, 5, 0, 786492, 5, 0, 852028, 5, 0, 917564, 5, 0, 983100, 5, 0, 1048636, 5, 0, 1114172, 5, 0, 1179708, 5, 0, 1245244, 5, 0, 1310780, 5, 0, 1376316, 5, 0, 1441852, 5, 0, 1507388, 5, 0, 1572924, 5, 0, 1638460, 5, 0, 1703996, 5, 0, 1769532, 5, 0, 1835068, 5, 0, 1900604, 5, 0, 1966140, 5, 0, 2031676, 5, 0, 2097212, 5, 0, 2162748, 5, 0, 2228284, 5, 0, 2293820, 5, 0, 2359356, 5, 0, 2424892, 5, 0, 2490428, 5, 0, 2555964, 5, 0, 2621500, 5, 0, 2687036, 5, 0, 2752572, 5, 0, 2818108, 5, 0, 2883644, 5, 0, 2949180, 5, 0, 3014716, 5, 0, -786455, 5, 0, -720919, 5, 0, -655383, 5, 0, -589847, 5, 0, -524311, 5, 0, -458775, 5, 0, -393239, 5, 0, -327703, 5, 0, -262167, 5, 0, -786454, 5, 0, -720918, 5, 0, -655382, 5, 0, -589846, 5, 0, -524310, 5, 0, -458774, 5, 0, -393238, 5, 0, -327702, 5, 0, -262166, 5, 0, -786453, 5, 0, -720917, 5, 0, -655381, 5, 0, -589845, 5, 0, -524309, 5, 0, -458773, 5, 0, -393237, 5, 0, -327701, 5, 0, -262165, 5, 0, -786452, 5, 0, -720916, 5, 0, -655380, 5, 0, -589844, 5, 0, -524308, 5, 0, -458772, 5, 0, -393236, 5, 0, -327700, 5, 0, -262164, 5, 0, -786451, 5, 0, -720915, 5, 0, -655379, 5, 0, -589843, 5, 0, -524307, 5, 0, -458771, 5, 0, -393235, 5, 0, -327699, 5, 0, -262163, 5, 0, -786450, 5, 0, -720914, 5, 0, -655378, 5, 0, -589842, 5, 0, -524306, 5, 0, -458770, 5, 0, -393234, 5, 0, -327698, 5, 0, -262162, 5, 0, -786449, 5, 0, -720913, 5, 0, -655377, 5, 0, -589841, 5, 0, -524305, 5, 0, -458769, 5, 0, -393233, 5, 0, -327697, 5, 0, -262161, 5, 0, -786448, 5, 0, -720912, 5, 0, -655376, 5, 0, -589840, 5, 0, -524304, 5, 0, -458768, 5, 0, -393232, 5, 0, -327696, 5, 0, -262160, 5, 0, -786447, 5, 0, -720911, 5, 0, -655375, 5, 0, -589839, 5, 0, -524303, 5, 0, -458767, 5, 0, -393231, 5, 0, -327695, 5, 0, -262159, 5, 0, -786446, 5, 0, -720910, 5, 0, -655374, 5, 0, -589838, 5, 0, -524302, 5, 0, -458766, 5, 0, -393230, 5, 0, -327694, 5, 0, -262158, 5, 0, -786445, 5, 0, -720909, 5, 0, -655373, 5, 0, -589837, 5, 0, -524301, 5, 0, -458765, 5, 0, -393229, 0, 3, -327693, 5, 0, -262157, 5, 0, -786444, 5, 0, -720908, 5, 0, -655372, 5, 0, -589836, 5, 0, -524300, 5, 0, -458764, 5, 0, -393228, 65536, 3, -327692, 5, 0, -262156, 5, 0, -786443, 5, 0, -720907, 5, 0, -655371, 5, 0, -589835, 5, 0, -524299, 5, 0, -393227, 65536, 3, -327691, 5, 0, -262155, 5, 0, -786442, 5, 0, -720906, 5, 0, -655370, 5, 0, -589834, 5, 0, -524298, 5, 0, -458762, 5, 0, -393226, 65536, 3, -327690, 5, 0, -262154, 5, 0, -786441, 5, 0, -720905, 5, 0, -655369, 5, 0, -589833, 5, 0, -524297, 5, 0, -458761, 5, 0, -393225, 65536, 3, -327689, 5, 0, -262153, 5, 0, -786440, 5, 0, -720904, 5, 0, -655368, 5, 0, -589832, 5, 0, -524296, 5, 0, -458760, 0, 0, -393224, 393216, 3, -327688, 5, 0, -262152, 196608, 3, -786439, 5, 0, -720903, 5, 0, -655367, 5, 0, -589831, 196608, 0, -524295, 196608, 1, -458759, 458752, 2, -393223, 458752, 1, -327687, 262144, 3, -262151, 5, 0, -786438, 5, 0, -720902, 5, 0, -655366, 5, 0, -589830, 5, 0, -524294, 5, 0, -458758, 5, 0, -393222, 5, 0, -327686, 65536, 3, -262150, 5, 0, -786437, 5, 0, -720901, 5, 0, -655365, 196608, 0, -589829, 196608, 1, -524293, 196608, 1, -458757, 262144, 3, -393221, 5, 0, -327685, 65536, 3, -262149, 5, 0, -786436, 5, 0, -720900, 5, 0, -655364, 5, 0, -589828, 5, 0, -524292, 5, 0, -458756, 65536, 3, -393220, 5, 0, -327684, 65536, 3, -262148, 5, 0, -786435, 5, 0, -720899, 196608, 0, -655363, 196608, 1, -589827, 196608, 1, -524291, 196608, 1, -458755, 458752, 3, -393219, 5, 0, -327683, 524288, 0, -262147, 196608, 1, -786434, 5, 0, -720898, 5, 0, -655362, 5, 0, -589826, 5, 0, -524290, 5, 0, -458754, 5, 0, -393218, 5, 0, -327682, 65536, 3, -262146, 5, 0, -786433, 5, 0, -720897, 5, 0, -655361, 5, 0, -589825, 5, 0, -524289, 196608, 0, -458753, 196608, 1, -393217, 196608, 1, -327681, 524288, 3, -262145, 5, 0, -851968, 5, 0, -786432, 5, 0, -720896, 5, 0, -655360, 5, 0, -589824, 5, 0, -524288, 5, 0, -458752, 5, 0, -393216, 65536, 3, -327680, 5, 0, -851967, 5, 0, -786431, 5, 0, -720895, 5, 0, -655359, 5, 0, -589823, 5, 0, -524287, 5, 0, -458751, 5, 0, -393215, 65536, 3, -327679, 5, 0, -851966, 5, 0, -786430, 5, 0, -720894, 5, 0, -655358, 5, 0, -589822, 5, 0, -524286, 5, 0, -458750, 5, 0, -393214, 65536, 3, -327678, 5, 0, -851965, 5, 0, -786429, 5, 0, -720893, 5, 0, -655357, 5, 0, -589821, 5, 0, -524285, 5, 0, -458749, 5, 0, -393213, 65536, 3, -327677, 5, 0, -851964, 5, 0, -786428, 5, 0, -720892, 5, 0, -655356, 262144, 0, -589820, 196608, 1, -524284, 196608, 2, -458748, 5, 0, -393212, 65536, 3, -327676, 5, 0, -851963, 5, 0, -786427, 5, 0, -720891, 5, 0, -655355, 65536, 3, -589819, 5, 0, -524283, 5, 0, -458747, 196608, 0, -393211, 458752, 3, -327675, 5, 0, -851962, 5, 0, -786426, 5, 0, -720890, 5, 0, -655354, 65536, 3, -589818, 5, 0, -524282, 5, 0, -458746, 5, 0, -393210, 5, 0, -327674, 5, 0, -851961, 5, 0, -786425, 5, 0, -720889, 5, 0, -655353, 524288, 0, -589817, 196608, 1, -524281, 196608, 1, -458745, 196608, 2, -393209, 5, 0, -327673, 5, 0, -851960, 5, 0, -786424, 5, 0, -720888, 5, 0, -655352, 65536, 3, -589816, 5, 0, -524280, 5, 0, -458744, 5, 0, -393208, 5, 0, -327672, 5, 0, -851959, 5, 0, -786423, 5, 0, -720887, 5, 0, -655351, 131072, 3, -589815, 5, 0, -524279, 5, 0, -458743, 0, 3, -393207, 5, 0, -327671, 5, 0, -851958, 5, 0, -786422, 5, 0, -720886, 5, 0, -655350, 5, 0, -589814, 5, 0, -524278, 5, 0, -458742, 65536, 3, -393206, 5, 0, -327670, 5, 0, -851957, 5, 0, -786421, 5, 0, -720885, 5, 0, -655349, 5, 0, -589813, 5, 0, -524277, 5, 0, -458741, 65536, 3, -393205, 5, 0, -327669, 5, 0, -851956, 5, 0, -786420, 5, 0, -720884, 5, 0, -655348, 196608, 0, -589812, 196608, 1, -524276, 196608, 1, -458740, 524288, 3, -393204, 5, 0, -327668, 5, 0, -851955, 5, 0, -786419, 5, 0, -720883, 5, 0, -655347, 5, 0, -589811, 5, 0, -524275, 5, 0, -458739, 65536, 3, -393203, 5, 0, -327667, 5, 0, -851954, 5, 0, -786418, 5, 0, -720882, 5, 0, -655346, 5, 0, -589810, 5, 0, -524274, 5, 0, -458738, 65536, 3, -393202, 5, 0, -327666, 5, 0, -851953, 5, 0, -786417, 5, 0, -720881, 5, 0, -655345, 5, 0, -589809, 5, 0, -524273, 5, 0, -458737, 524288, 0, -393201, 196608, 1, -327665, 196608, 1, -851952, 5, 0, -786416, 5, 0, -720880, 5, 0, -655344, 196608, 0, -589808, 196608, 1, -524272, 196608, 1, -458736, 524288, 3, -393200, 5, 0, -327664, 5, 0, -851951, 5, 0, -786415, 5, 0, -720879, 5, 0, -655343, 5, 0, -589807, 5, 0, -524271, 5, 0, -458735, 65536, 3, -393199, 5, 0, -327663, 5, 0, -851950, 5, 0, -786414, 5, 0, -720878, 5, 0, -655342, 5, 0, -589806, 5, 0, -524270, 5, 0, -458734, 65536, 3, -393198, 5, 0, -327662, 5, 0, -851949, 5, 0, -786413, 5, 0, -720877, 5, 0, -655341, 5, 0, -589805, 5, 0, -524269, 5, 0, -458733, 65536, 3, -393197, 5, 0, -327661, 5, 0, -851948, 5, 0, -786412, 5, 0, -720876, 5, 0, -655340, 5, 0, -589804, 0, 3, -524268, 5, 0, -458732, 65536, 3, -393196, 5, 0, -327660, 5, 0, -851947, 5, 0, -786411, 5, 0, -720875, 5, 0, -655339, 5, 0, -589803, 65536, 3, -524267, 5, 0, -458731, 65536, 3, -393195, 5, 0, -327659, 5, 0, -851946, 5, 0, -786410, 5, 0, -720874, 5, 0, -655338, 5, 0, -589802, 65536, 3, -524266, 5, 0, -458730, 131072, 3, -393194, 5, 0, -327658, 5, 0, -851945, 5, 0, -786409, 5, 0, -720873, 5, 0, -655337, 5, 0, -589801, 65536, 3, -524265, 5, 0, -458729, 5, 0, -393193, 5, 0, -327657, 5, 0, -851944, 5, 0, -786408, 5, 0, -720872, 5, 0, -655336, 5, 0, -589800, 65536, 3, -524264, 5, 0, -458728, 5, 0, -393192, 5, 0, -327656, 5, 0, -851943, 5, 0, -786407, 5, 0, -720871, 5, 0, -655335, 5, 0, -589799, 65536, 3, -524263, 5, 0, -458727, 5, 0, -393191, 5, 0, -327655, 5, 0, -851942, 5, 0, -786406, 5, 0, -720870, 5, 0, -655334, 5, 0, -589798, 458752, 0, -524262, 196608, 1, -458726, 196608, 1, -393190, 196608, 2, -327654, 5, 0, -851941, 5, 0, -786405, 5, 0, -720869, 5, 0, -655333, 5, 0, -589797, 5, 0, -524261, 5, 0, -458725, 5, 0, -393189, 5, 0, -327653, 5, 0, -851940, 5, 0, -786404, 196608, 0, -720868, 196608, 1, -655332, 196608, 1, -589796, 196608, 1, -524260, 196608, 1, -458724, 196608, 1, -393188, 196608, 2, -327652, 5, 0, -851939, 5, 0, -786403, 5, 0, -720867, 5, 0, -655331, 5, 0, -589795, 5, 0, -524259, 5, 0, -458723, 5, 0, -393187, 5, 0, -327651, 5, 0, -851938, 5, 0, -786402, 5, 0, -720866, 5, 0, -655330, 5, 0, -589794, 5, 0, -524258, 0, 3, -458722, 5, 0, -393186, 5, 0, -327650, 5, 0, -851937, 5, 0, -786401, 5, 0, -720865, 5, 0, -655329, 5, 0, -589793, 5, 0, -524257, 65536, 3, -458721, 5, 0, -393185, 5, 0, -327649, 5, 0, -851936, 5, 0, -786400, 196608, 0, -720864, 196608, 1, -655328, 196608, 1, -589792, 262144, 2, -524256, 393216, 3, -458720, 5, 0, -393184, 5, 0, -327648, 5, 0, -851935, 5, 0, -786399, 5, 0, -720863, 5, 0, -655327, 5, 0, -589791, 131072, 0, -524255, 327680, 3, -458719, 5, 0, -393183, 0, 3, -327647, 5, 0, -851934, 5, 0, -786398, 5, 0, -720862, 5, 0, -655326, 5, 0, -589790, 5, 0, -524254, 65536, 3, -458718, 5, 0, -393182, 65536, 3, -327646, 5, 0, -851933, 5, 0, -786397, 5, 0, -720861, 5, 0, -655325, 5, 0, -589789, 5, 0, -524253, 65536, 3, -458717, 5, 0, -393181, 65536, 3, -327645, 5, 0, -851932, 5, 0, -786396, 5, 0, -720860, 5, 0, -655324, 5, 0, -589788, 262144, 0, -524252, 458752, 3, -458716, 5, 0, -393180, 131072, 3, -327644, 5, 0, -851931, 5, 0, -786395, 5, 0, -720859, 5, 0, -655323, 5, 0, -589787, 65536, 3, -524251, 5, 0, -458715, 5, 0, -393179, 5, 0, -327643, 5, 0, -851930, 5, 0, -786394, 5, 0, -720858, 5, 0, -655322, 5, 0, -589786, 65536, 3, -524250, 5, 0, -458714, 5, 0, -393178, 5, 0, -327642, 5, 0, -851929, 5, 0, -786393, 5, 0, -720857, 5, 0, -655321, 5, 0, -589785, 524288, 0, -524249, 196608, 1, -458713, 196608, 1, -393177, 196608, 2, -327641, 5, 0, -851928, 5, 0, -786392, 5, 0, -720856, 5, 0, -655320, 5, 0, -589784, 131072, 3, -524248, 5, 0, -458712, 5, 0, -393176, 5, 0, -327640, 5, 0, -851927, 5, 0, -786391, 5, 0, -720855, 5, 0, -655319, 5, 0, -589783, 5, 0, -524247, 5, 0, -458711, 5, 0, -393175, 5, 0, -327639, 5, 0, -851926, 5, 0, -786390, 5, 0, -720854, 5, 0, -655318, 5, 0, -589782, 5, 0, -524246, 5, 0, -458710, 0, 3, -393174, 5, 0, -327638, 5, 0, -851925, 5, 0, -786389, 5, 0, -720853, 5, 0, -655317, 5, 0, -589781, 5, 0, -524245, 5, 0, -458709, 65536, 3, -393173, 5, 0, -327637, 5, 0, -851924, 5, 0, -786388, 5, 0, -720852, 5, 0, -655316, 5, 0, -589780, 5, 0, -524244, 5, 0, -458708, 65536, 3, -393172, 5, 0, -327636, 5, 0, -851923, 5, 0, -786387, 5, 0, -720851, 196608, 0, -655315, 196608, 1, -589779, 196608, 1, -524243, 196608, 1, -458707, 524288, 3, -393171, 5, 0, -327635, 5, 0, -851922, 5, 0, -786386, 5, 0, -720850, 5, 0, -655314, 5, 0, -589778, 5, 0, -524242, 5, 0, -458706, 65536, 3, -393170, 5, 0, -327634, 5, 0, -851921, 5, 0, -786385, 196608, 0, -720849, 196608, 1, -655313, 196608, 1, -589777, 262144, 3, -524241, 5, 0, -458705, 65536, 3, -393169, 5, 0, -327633, 5, 0, -851920, 5, 0, -786384, 5, 0, -720848, 5, 0, -655312, 5, 0, -589776, 65536, 3, -524240, 5, 0, -458704, 65536, 3, -393168, 5, 0, -327632, 5, 0, -851919, 5, 0, -786383, 5, 0, -720847, 5, 0, -655311, 5, 0, -851918, 5, 0, -786382, 5, 0, -720846, 5, 0, -655310, 5, 0, -851917, 5, 0, -786381, 196608, 0, -720845, 196608, 1, -655309, 196608, 1, -851916, 5, 0, -786380, 5, 0, -720844, 5, 0, -655308, 5, 0, -851915, 5, 0, -786379, 5, 0, -720843, 196608, 0, -655307, 196608, 1, -851914, 5, 0, -786378, 5, 0, -720842, 5, 0, -655306, 5, 0, -851913, 5, 0, -786377, 5, 0, -720841, 5, 0, -655305, 5, 0, -851912, 5, 0, -786376, 5, 0, -720840, 5, 0, -655304, 5, 0, -851911, 5, 0, -786375, 5, 0, -720839, 5, 0, -655303, 5, 0, -851910, 5, 0, -786374, 5, 0, -720838, 5, 0, -655302, 5, 0, -851909, 5, 0, -786373, 5, 0, -720837, 5, 0, -655301, 5, 0, -851908, 5, 0, -786372, 5, 0, -720836, 5, 0, -655300, 5, 0, 3080229, 5, 0, 3080230, 196608, 1, 3080231, 5, 0, 3080232, 5, 0, 3080233, 5, 0, 3080234, 5, 0, -458763, 5, 0)
script = ExtResource("3_wgbw4")

[node name="PlayerPosition" type="Marker2D" parent="."]
position = Vector2(-74, -29)

[node name="enemyHouse" parent="." instance=ExtResource("4_rkski")]
position = Vector2(-75, 121)
rotation = -1.57079

[node name="enemyHouse2" parent="." instance=ExtResource("4_rkski")]
position = Vector2(168, -40)
rotation = 1.57079

[node name="enemyHouse3" parent="." instance=ExtResource("4_rkski")]
position = Vector2(249, 94)
rotation = -1.57079

[node name="enemyHouse4" parent="." instance=ExtResource("4_rkski")]
position = Vector2(42, 288)
rotation = 3.14159

[node name="enemyHouse5" parent="." instance=ExtResource("4_rkski")]
position = Vector2(-24, 431)

[node name="enemyHouse6" parent="." instance=ExtResource("4_rkski")]
position = Vector2(-72, 312)
rotation = -1.57079

[node name="enemyHouse7" parent="." instance=ExtResource("4_rkski")]
position = Vector2(312, 216)
rotation = -3.14159

[node name="enemyHouse8" parent="." instance=ExtResource("4_rkski")]
position = Vector2(232, 417)

[node name="enemyHouse9" parent="." instance=ExtResource("4_rkski")]
position = Vector2(361, 481)
rotation = 3.14159

[node name="enemyHouse10" parent="." instance=ExtResource("4_rkski")]
position = Vector2(400, 559)
rotation = 1.57079

[node name="enemyHouse11" parent="." instance=ExtResource("4_rkski")]
position = Vector2(545, 457)
rotation = -3.14159

[node name="enemyHouse12" parent="." instance=ExtResource("4_rkski")]
position = Vector2(569, 102)
rotation = 1.57079

[node name="enemyHouse13" parent="." instance=ExtResource("4_rkski")]
position = Vector2(360, 88)
rotation = -1.57079

[node name="enemyHouse14" parent="." instance=ExtResource("4_rkski")]
position = Vector2(704, 15)
rotation = 3.14159

[node name="enemyHouse15" parent="." instance=ExtResource("4_rkski")]
position = Vector2(624, 104)
rotation = 1.57079

[node name="enemyHouse16" parent="." instance=ExtResource("4_rkski")]
position = Vector2(497, 352)

[node name="enemyHouse17" parent="." instance=ExtResource("4_rkski")]
position = Vector2(40, 583)

[node name="enemyHouse18" parent="." instance=ExtResource("4_rkski")]
position = Vector2(761, 607)
rotation = -3.14159

[node name="enemyHouse19" parent="." instance=ExtResource("4_rkski")]
position = Vector2(128, 560)
rotation = 1.57079

[node name="Exit" type="Area2D" parent="."]
position = Vector2(439, 56)
metadata/_edit_group_ = true

[node name="Sprite2D" type="Sprite2D" parent="Exit"]
texture = ExtResource("5_rt3lm")

[node name="CollisionShape2D" type="CollisionShape2D" parent="Exit"]
shape = SubResource("RectangleShape2D_umfhh")

[node name="Health" parent="." instance=ExtResource("6_0cw2m")]
position = Vector2(-73, 464)

[node name="Health2" parent="." instance=ExtResource("6_0cw2m")]
position = Vector2(128, 509)

[node name="Health3" parent="." instance=ExtResource("6_0cw2m")]
position = Vector2(641, 457)

[node name="Health4" parent="." instance=ExtResource("6_0cw2m")]
position = Vector2(302, 304)

[node name="Key" parent="." instance=ExtResource("7_ycsg7")]
position = Vector2(513, -31)

[node name="Key2" parent="." instance=ExtResource("7_ycsg7")]
position = Vector2(399, 433)

[node name="Key3" parent="." instance=ExtResource("7_ycsg7")]
position = Vector2(345, 304)

[node name="Door" parent="." instance=ExtResource("8_cr0pk")]
position = Vector2(712, 608)

[node name="ExitSound" type="AudioStreamPlayer2D" parent="."]
stream = ExtResource("9_tm6xj")

[connection signal="body_entered" from="Exit" to="." method="_on_exit_body_entered"]
